%YAML 1.1
%TAG !u! tag:unity3d.com,2011:
--- !u!54 &-1166394149493282718
Rigidbody:
  m_ObjectHideFlags: 0
  m_CorrespondingSourceObject: {fileID: 0}
  m_PrefabInstance: {fileID: 0}
  m_PrefabAsset: {fileID: 0}
  m_GameObject: {fileID: 8531787369241710909}
  serializedVersion: 2
  m_Mass: 1
  m_Drag: 0
  m_AngularDrag: 0.05
  m_UseGravity: 0
  m_IsKinematic: 0
  m_Interpolate: 0
  m_Constraints: 0
  m_CollisionDetection: 0
--- !u!65 &24379281150161799
BoxCollider:
  m_ObjectHideFlags: 0
  m_CorrespondingSourceObject: {fileID: 0}
  m_PrefabInstance: {fileID: 0}
  m_PrefabAsset: {fileID: 0}
  m_GameObject: {fileID: 8531787369241710909}
  m_Material: {fileID: 0}
  m_IsTrigger: 0
  m_Enabled: 1
  serializedVersion: 2
  m_Size: {x: 2.731575, y: 1.412593, z: 4.8898287}
  m_Center: {x: 0.11580066, y: -0.07351637, z: 0.030448887}
--- !u!114 &-5024932848003366063
MonoBehaviour:
  m_ObjectHideFlags: 0
  m_CorrespondingSourceObject: {fileID: 0}
  m_PrefabInstance: {fileID: 0}
  m_PrefabAsset: {fileID: 0}
  m_GameObject: {fileID: 8531787369241710909}
  m_Enabled: 1
  m_EditorHideFlags: 0
  m_Script: {fileID: 11500000, guid: 627855c7f81362d41938ffe0b1475957, type: 3}
  m_Name: 
  m_EditorClassIdentifier: 
  m_SynchronizePosition: 1
  m_SynchronizeRotation: 1
  m_SynchronizeScale: 0
  m_UseLocal: 1
--- !u!114 &-2037717049249264271
MonoBehaviour:
  m_ObjectHideFlags: 0
  m_CorrespondingSourceObject: {fileID: 0}
  m_PrefabInstance: {fileID: 0}
  m_PrefabAsset: {fileID: 0}
  m_GameObject: {fileID: 8531787369241710909}
  m_Enabled: 1
  m_EditorHideFlags: 0
  m_Script: {fileID: 11500000, guid: 26b3f6d65fd2b41459135a4c82a6c4f8, type: 3}
  m_Name: 
  m_EditorClassIdentifier: 
  isScalable: 1
  onGrabbed:
    m_PersistentCalls:
      m_Calls:
      - m_Target: {fileID: -1815370633617403429}
        m_TargetAssemblyTypeName: JY_GamePrefab, Assembly-CSharp
        m_MethodName: GravityOn
        m_Mode: 1
        m_Arguments:
          m_ObjectArgument: {fileID: 0}
          m_ObjectArgumentAssemblyTypeName: UnityEngine.Object, UnityEngine
          m_IntArgument: 0
          m_FloatArgument: 0
          m_StringArgument: 
          m_BoolArgument: 0
        m_CallState: 2
  onReleased:
    m_PersistentCalls:
      m_Calls: []
  onGrabClicked:
    m_PersistentCalls:
      m_Calls: []
  onGrabMoved:
    m_PersistentCalls:
      m_Calls: []
--- !u!114 &-1815370633617403429
MonoBehaviour:
  m_ObjectHideFlags: 0
  m_CorrespondingSourceObject: {fileID: 0}
  m_PrefabInstance: {fileID: 0}
  m_PrefabAsset: {fileID: 0}
  m_GameObject: {fileID: 8531787369241710909}
  m_Enabled: 1
  m_EditorHideFlags: 0
  m_Script: {fileID: 11500000, guid: 00f06863b9870994daf1c5fe3fcae563, type: 3}
  m_Name: 
  m_EditorClassIdentifier: 
  isSelected: 0
  rotSpeed: 35
--- !u!114 &3052528026777596429
MonoBehaviour:
  m_ObjectHideFlags: 0
  m_CorrespondingSourceObject: {fileID: 0}
  m_PrefabInstance: {fileID: 0}
  m_PrefabAsset: {fileID: 0}
  m_GameObject: {fileID: 8531787369241710909}
  m_Enabled: 1
  m_EditorHideFlags: 0
  m_Script: {fileID: 11500000, guid: aa584fbee541324448dd18d8409c7a41, type: 3}
  m_Name: 
  m_EditorClassIdentifier: 
  ObservedComponentsFoldoutOpen: 1
  Group: 0
  prefixField: -1
  observableSearch: 2
  Synchronization: 3
  OwnershipTransfer: 0
  ObservedComponents:
  - {fileID: -5024932848003366063}
  viewIdField: 0
  InstantiationId: 0
  isRuntimeInstantiated: 0
--- !u!1001 &380293029616830516
PrefabInstance:
  m_ObjectHideFlags: 0
  serializedVersion: 2
  m_Modification:
    m_TransformParent: {fileID: 0}
    m_Modifications:
    - target: {fileID: -8956326864897689137, guid: 6990e150d24ced3479192332fbd062ee, type: 3}
      propertyPath: m_Layer
      value: 14
      objectReference: {fileID: 0}
    - target: {fileID: -8891637149427883623, guid: 6990e150d24ced3479192332fbd062ee, type: 3}
      propertyPath: m_Layer
      value: 14
      objectReference: {fileID: 0}
    - target: {fileID: -8563032270920557975, guid: 6990e150d24ced3479192332fbd062ee, type: 3}
      propertyPath: m_Layer
      value: 14
      objectReference: {fileID: 0}
    - target: {fileID: -8451251099246372650, guid: 6990e150d24ced3479192332fbd062ee, type: 3}
      propertyPath: m_Layer
      value: 14
      objectReference: {fileID: 0}
    - target: {fileID: -7952133056427820046, guid: 6990e150d24ced3479192332fbd062ee, type: 3}
      propertyPath: m_Layer
      value: 14
      objectReference: {fileID: 0}
    - target: {fileID: -7578538209477548050, guid: 6990e150d24ced3479192332fbd062ee, type: 3}
      propertyPath: m_Layer
      value: 14
      objectReference: {fileID: 0}
    - target: {fileID: -5086854849858492464, guid: 6990e150d24ced3479192332fbd062ee, type: 3}
      propertyPath: m_Layer
      value: 14
      objectReference: {fileID: 0}
    - target: {fileID: -4829307487416521908, guid: 6990e150d24ced3479192332fbd062ee, type: 3}
      propertyPath: m_Layer
      value: 14
      objectReference: {fileID: 0}
    - target: {fileID: -4218054900723226005, guid: 6990e150d24ced3479192332fbd062ee, type: 3}
      propertyPath: m_Layer
      value: 14
      objectReference: {fileID: 0}
    - target: {fileID: -4216859302048453862, guid: 6990e150d24ced3479192332fbd062ee, type: 3}
      propertyPath: m_RootOrder
      value: 0
      objectReference: {fileID: 0}
    - target: {fileID: -4216859302048453862, guid: 6990e150d24ced3479192332fbd062ee, type: 3}
      propertyPath: m_LocalScale.x
      value: 0.1
      objectReference: {fileID: 0}
    - target: {fileID: -4216859302048453862, guid: 6990e150d24ced3479192332fbd062ee, type: 3}
      propertyPath: m_LocalScale.y
      value: 0.1
      objectReference: {fileID: 0}
    - target: {fileID: -4216859302048453862, guid: 6990e150d24ced3479192332fbd062ee, type: 3}
      propertyPath: m_LocalScale.z
      value: 0.1
      objectReference: {fileID: 0}
    - target: {fileID: -4216859302048453862, guid: 6990e150d24ced3479192332fbd062ee, type: 3}
      propertyPath: m_LocalPosition.x
      value: 0
      objectReference: {fileID: 0}
    - target: {fileID: -4216859302048453862, guid: 6990e150d24ced3479192332fbd062ee, type: 3}
      propertyPath: m_LocalPosition.y
      value: 0
      objectReference: {fileID: 0}
    - target: {fileID: -4216859302048453862, guid: 6990e150d24ced3479192332fbd062ee, type: 3}
      propertyPath: m_LocalPosition.z
      value: 0
      objectReference: {fileID: 0}
    - target: {fileID: -4216859302048453862, guid: 6990e150d24ced3479192332fbd062ee, type: 3}
      propertyPath: m_LocalRotation.w
      value: -0.42261827
      objectReference: {fileID: 0}
    - target: {fileID: -4216859302048453862, guid: 6990e150d24ced3479192332fbd062ee, type: 3}
      propertyPath: m_LocalRotation.x
      value: 0
      objectReference: {fileID: 0}
    - target: {fileID: -4216859302048453862, guid: 6990e150d24ced3479192332fbd062ee, type: 3}
      propertyPath: m_LocalRotation.y
      value: 0.9063079
      objectReference: {fileID: 0}
    - target: {fileID: -4216859302048453862, guid: 6990e150d24ced3479192332fbd062ee, type: 3}
      propertyPath: m_LocalRotation.z
      value: -0
      objectReference: {fileID: 0}
    - target: {fileID: -4216859302048453862, guid: 6990e150d24ced3479192332fbd062ee, type: 3}
      propertyPath: m_LocalEulerAnglesHint.x
      value: 0
      objectReference: {fileID: 0}
    - target: {fileID: -4216859302048453862, guid: 6990e150d24ced3479192332fbd062ee, type: 3}
      propertyPath: m_LocalEulerAnglesHint.y
      value: 230
      objectReference: {fileID: 0}
    - target: {fileID: -4216859302048453862, guid: 6990e150d24ced3479192332fbd062ee, type: 3}
      propertyPath: m_LocalEulerAnglesHint.z
      value: 0
      objectReference: {fileID: 0}
    - target: {fileID: -3735675209245050568, guid: 6990e150d24ced3479192332fbd062ee, type: 3}
      propertyPath: m_Layer
      value: 14
      objectReference: {fileID: 0}
    - target: {fileID: -3728858360437314574, guid: 6990e150d24ced3479192332fbd062ee, type: 3}
      propertyPath: m_Layer
      value: 14
      objectReference: {fileID: 0}
    - target: {fileID: -3689673307313575330, guid: 6990e150d24ced3479192332fbd062ee, type: 3}
      propertyPath: m_Layer
      value: 14
      objectReference: {fileID: 0}
    - target: {fileID: -2783467297925046898, guid: 6990e150d24ced3479192332fbd062ee, type: 3}
      propertyPath: m_Layer
      value: 14
      objectReference: {fileID: 0}
    - target: {fileID: -2698540315466128277, guid: 6990e150d24ced3479192332fbd062ee, type: 3}
      propertyPath: m_Layer
      value: 14
      objectReference: {fileID: 0}
    - target: {fileID: -2078850554425832490, guid: 6990e150d24ced3479192332fbd062ee, type: 3}
      propertyPath: m_Layer
      value: 14
      objectReference: {fileID: 0}
    - target: {fileID: -927199367670048503, guid: 6990e150d24ced3479192332fbd062ee, type: 3}
      propertyPath: m_Name
      value: Sedan_Game
      objectReference: {fileID: 0}
    - target: {fileID: -927199367670048503, guid: 6990e150d24ced3479192332fbd062ee, type: 3}
      propertyPath: m_Layer
      value: 14
      objectReference: {fileID: 0}
    - target: {fileID: -927199367670048503, guid: 6990e150d24ced3479192332fbd062ee, type: 3}
      propertyPath: m_TagString
      value: GamePrefab
      objectReference: {fileID: 0}
    - target: {fileID: -272645532838995983, guid: 6990e150d24ced3479192332fbd062ee, type: 3}
      propertyPath: m_Layer
      value: 14
      objectReference: {fileID: 0}
    - target: {fileID: 651062535157405844, guid: 6990e150d24ced3479192332fbd062ee, type: 3}
      propertyPath: m_Layer
      value: 14
      objectReference: {fileID: 0}
    - target: {fileID: 867187950504957166, guid: 6990e150d24ced3479192332fbd062ee, type: 3}
      propertyPath: m_Layer
      value: 14
      objectReference: {fileID: 0}
    - target: {fileID: 1857745940113092986, guid: 6990e150d24ced3479192332fbd062ee, type: 3}
      propertyPath: m_Layer
      value: 14
      objectReference: {fileID: 0}
    - target: {fileID: 2806938677716984064, guid: 6990e150d24ced3479192332fbd062ee, type: 3}
      propertyPath: m_Layer
      value: 14
      objectReference: {fileID: 0}
    - target: {fileID: 2921039965655649638, guid: 6990e150d24ced3479192332fbd062ee, type: 3}
      propertyPath: m_Layer
      value: 14
      objectReference: {fileID: 0}
    - target: {fileID: 2991953326257349957, guid: 6990e150d24ced3479192332fbd062ee, type: 3}
      propertyPath: m_Layer
      value: 14
      objectReference: {fileID: 0}
    - target: {fileID: 3997211691939035857, guid: 6990e150d24ced3479192332fbd062ee, type: 3}
      propertyPath: m_Layer
      value: 14
      objectReference: {fileID: 0}
    - target: {fileID: 4204966966228102322, guid: 6990e150d24ced3479192332fbd062ee, type: 3}
      propertyPath: m_Layer
      value: 14
      objectReference: {fileID: 0}
    - target: {fileID: 4530215526102382586, guid: 6990e150d24ced3479192332fbd062ee, type: 3}
      propertyPath: m_Layer
      value: 14
      objectReference: {fileID: 0}
    - target: {fileID: 5133913965574556032, guid: 6990e150d24ced3479192332fbd062ee, type: 3}
      propertyPath: m_Layer
      value: 14
      objectReference: {fileID: 0}
    - target: {fileID: 5447549885320687260, guid: 6990e150d24ced3479192332fbd062ee, type: 3}
      propertyPath: m_Layer
      value: 14
      objectReference: {fileID: 0}
    - target: {fileID: 5661355732858787205, guid: 6990e150d24ced3479192332fbd062ee, type: 3}
      propertyPath: m_Layer
      value: 14
      objectReference: {fileID: 0}
    - target: {fileID: 6776124024731879990, guid: 6990e150d24ced3479192332fbd062ee, type: 3}
      propertyPath: m_Layer
      value: 14
      objectReference: {fileID: 0}
    - target: {fileID: 8180329242925643842, guid: 6990e150d24ced3479192332fbd062ee, type: 3}
      propertyPath: m_Layer
      value: 14
      objectReference: {fileID: 0}
    - target: {fileID: 8798661057350396706, guid: 6990e150d24ced3479192332fbd062ee, type: 3}
      propertyPath: m_Layer
      value: 14
      objectReference: {fileID: 0}
    - target: {fileID: 9034903674660227148, guid: 6990e150d24ced3479192332fbd062ee, type: 3}
      propertyPath: m_Layer
      value: 14
      objectReference: {fileID: 0}
    m_RemovedComponents: []
  m_SourcePrefab: {fileID: 100100000, guid: 6990e150d24ced3479192332fbd062ee, type: 3}
--- !u!1 &8531787369241710909 stripped
GameObject:
  m_CorrespondingSourceObject: {fileID: -927199367670048503, guid: 6990e150d24ced3479192332fbd062ee, type: 3}
  m_PrefabInstance: {fileID: 380293029616830516}
  m_PrefabAsset: {fileID: 0}
