%YAML 1.1
%TAG !u! tag:unity3d.com,2011:
--- !u!1001 &100100000
Prefab:
  m_ObjectHideFlags: 1
  serializedVersion: 2
  m_Modification:
    m_TransformParent: {fileID: 0}
    m_Modifications: []
    m_RemovedComponents: []
  m_SourcePrefab: {fileID: 0}
  m_RootGameObject: {fileID: 1461462828993820}
  m_IsPrefabAsset: 1
--- !u!1 &1015291159734468
GameObject:
  m_ObjectHideFlags: 1
  m_CorrespondingSourceObject: {fileID: 0}
  m_PrefabInternal: {fileID: 100100000}
  serializedVersion: 6
  m_Component:
  - component: {fileID: 4662448783848952}
  m_Layer: 0
  m_Name: Pivot
  m_TagString: Untagged
  m_Icon: {fileID: 0}
  m_NavMeshLayer: 0
  m_StaticEditorFlags: 0
  m_IsActive: 1
--- !u!1 &1025140099501064
GameObject:
  m_ObjectHideFlags: 0
  m_CorrespondingSourceObject: {fileID: 0}
  m_PrefabInternal: {fileID: 100100000}
  serializedVersion: 6
  m_Component:
  - component: {fileID: 4132630188623038}
  m_Layer: 0
  m_Name: RightHandIKTarget
  m_TagString: Untagged
  m_Icon: {fileID: 0}
  m_NavMeshLayer: 0
  m_StaticEditorFlags: 0
  m_IsActive: 1
--- !u!1 &1107029476908834
GameObject:
  m_ObjectHideFlags: 0
  m_CorrespondingSourceObject: {fileID: 0}
  m_PrefabInternal: {fileID: 100100000}
  serializedVersion: 6
  m_Component:
  - component: {fileID: 4373261483140502}
  m_Layer: 0
  m_Name: Colliders
  m_TagString: Untagged
  m_Icon: {fileID: 0}
  m_NavMeshLayer: 0
  m_StaticEditorFlags: 0
  m_IsActive: 1
--- !u!1 &1107610748939162
GameObject:
  m_ObjectHideFlags: 0
  m_CorrespondingSourceObject: {fileID: 0}
  m_PrefabInternal: {fileID: 100100000}
  serializedVersion: 6
  m_Component:
  - component: {fileID: 4316107315163740}
  - component: {fileID: 33610050788971548}
  - component: {fileID: 23828450811081016}
  m_Layer: 0
  m_Name: Mesh
  m_TagString: Untagged
  m_Icon: {fileID: 0}
  m_NavMeshLayer: 0
  m_StaticEditorFlags: 0
  m_IsActive: 1
--- !u!1 &1206109913089006
GameObject:
  m_ObjectHideFlags: 1
  m_CorrespondingSourceObject: {fileID: 0}
  m_PrefabInternal: {fileID: 100100000}
  serializedVersion: 6
  m_Component:
  - component: {fileID: 4734075947627234}
  - component: {fileID: 65639555971468508}
  - component: {fileID: 114791012784540550}
  m_Layer: 0
  m_Name: Collider
  m_TagString: Untagged
  m_Icon: {fileID: 0}
  m_NavMeshLayer: 0
  m_StaticEditorFlags: 0
  m_IsActive: 1
--- !u!1 &1227323183806068
GameObject:
  m_ObjectHideFlags: 0
  m_CorrespondingSourceObject: {fileID: 0}
  m_PrefabInternal: {fileID: 100100000}
  serializedVersion: 6
  m_Component:
  - component: {fileID: 4005925152754270}
  - component: {fileID: 111491264926651898}
  m_Layer: 0
  m_Name: Hammer
  m_TagString: Untagged
  m_Icon: {fileID: 0}
  m_NavMeshLayer: 0
  m_StaticEditorFlags: 0
  m_IsActive: 1
--- !u!1 &1342500942892940
GameObject:
  m_ObjectHideFlags: 1
  m_CorrespondingSourceObject: {fileID: 0}
  m_PrefabInternal: {fileID: 100100000}
  serializedVersion: 6
  m_Component:
  - component: {fileID: 4896803659858542}
  - component: {fileID: 65706140404246384}
  - component: {fileID: 114020670875759964}
  m_Layer: 0
  m_Name: Collider
  m_TagString: Untagged
  m_Icon: {fileID: 0}
  m_NavMeshLayer: 0
  m_StaticEditorFlags: 0
  m_IsActive: 1
--- !u!1 &1358987159791032
GameObject:
  m_ObjectHideFlags: 0
  m_CorrespondingSourceObject: {fileID: 0}
  m_PrefabInternal: {fileID: 100100000}
  serializedVersion: 6
  m_Component:
  - component: {fileID: 4630387520581884}
  m_Layer: 0
  m_Name: LeftHandIKTarget
  m_TagString: Untagged
  m_Icon: {fileID: 0}
  m_NavMeshLayer: 0
  m_StaticEditorFlags: 0
  m_IsActive: 1
--- !u!1 &1461462828993820
GameObject:
  m_ObjectHideFlags: 0
  m_CorrespondingSourceObject: {fileID: 0}
  m_PrefabInternal: {fileID: 100100000}
  serializedVersion: 6
  m_Component:
  - component: {fileID: 4822941029238526}
  - component: {fileID: 54415974846392048}
  - component: {fileID: 114598299233302280}
  m_Layer: 0
  m_Name: WPN_M9_Laser
  m_TagString: Untagged
  m_Icon: {fileID: 0}
  m_NavMeshLayer: 0
  m_StaticEditorFlags: 0
  m_IsActive: 1
--- !u!1 &1465343483161208
GameObject:
  m_ObjectHideFlags: 0
  m_CorrespondingSourceObject: {fileID: 0}
  m_PrefabInternal: {fileID: 100100000}
  serializedVersion: 6
  m_Component:
  - component: {fileID: 4521101036916434}
  - component: {fileID: 114631063050523220}
  - component: {fileID: 65340560638007698}
  m_Layer: 0
  m_Name: Attachment Receiver
  m_TagString: Untagged
  m_Icon: {fileID: 0}
  m_NavMeshLayer: 0
  m_StaticEditorFlags: 0
  m_IsActive: 1
--- !u!1 &1548943531659166
GameObject:
  m_ObjectHideFlags: 0
  m_CorrespondingSourceObject: {fileID: 0}
  m_PrefabInternal: {fileID: 100100000}
  serializedVersion: 6
  m_Component:
  - component: {fileID: 4834290795239770}
  - component: {fileID: 114851675638818266}
  m_Layer: 0
  m_Name: GunHandler
  m_TagString: Untagged
  m_Icon: {fileID: 0}
  m_NavMeshLayer: 0
  m_StaticEditorFlags: 0
  m_IsActive: 1
--- !u!1 &1568049640457496
GameObject:
  m_ObjectHideFlags: 0
  m_CorrespondingSourceObject: {fileID: 0}
  m_PrefabInternal: {fileID: 100100000}
  serializedVersion: 6
  m_Component:
  - component: {fileID: 4772091247898022}
  - component: {fileID: 33791627694088360}
  - component: {fileID: 23095053457359780}
  m_Layer: 0
  m_Name: Mesh_0009 Slide
  m_TagString: Untagged
  m_Icon: {fileID: 0}
  m_NavMeshLayer: 0
  m_StaticEditorFlags: 0
  m_IsActive: 1
--- !u!1 &1759444562656748
GameObject:
  m_ObjectHideFlags: 0
  m_CorrespondingSourceObject: {fileID: 0}
  m_PrefabInternal: {fileID: 100100000}
  serializedVersion: 6
  m_Component:
  - component: {fileID: 4392040473037160}
  - component: {fileID: 114518597169539074}
  - component: {fileID: 65856428845453672}
  m_Layer: 0
  m_Name: Magazine
  m_TagString: Untagged
  m_Icon: {fileID: 0}
  m_NavMeshLayer: 0
  m_StaticEditorFlags: 0
  m_IsActive: 1
--- !u!1 &1780028690085526
GameObject:
  m_ObjectHideFlags: 1
  m_CorrespondingSourceObject: {fileID: 0}
  m_PrefabInternal: {fileID: 100100000}
  serializedVersion: 6
  m_Component:
  - component: {fileID: 4827566736662248}
  - component: {fileID: 65365373750493468}
  - component: {fileID: 114092554364676314}
  m_Layer: 0
  m_Name: Collider
  m_TagString: Untagged
  m_Icon: {fileID: 0}
  m_NavMeshLayer: 0
  m_StaticEditorFlags: 0
  m_IsActive: 1
--- !u!1 &1893480650964642
GameObject:
  m_ObjectHideFlags: 1
  m_CorrespondingSourceObject: {fileID: 0}
  m_PrefabInternal: {fileID: 100100000}
  serializedVersion: 6
  m_Component:
  - component: {fileID: 4684897623888150}
  - component: {fileID: 33321770462787144}
  - component: {fileID: 23441195276258276}
  m_Layer: 0
  m_Name: Mesh_0009 Hammer
  m_TagString: Untagged
  m_Icon: {fileID: 0}
  m_NavMeshLayer: 0
  m_StaticEditorFlags: 0
  m_IsActive: 1
--- !u!1 &1940831690714846
GameObject:
  m_ObjectHideFlags: 1
  m_CorrespondingSourceObject: {fileID: 0}
  m_PrefabInternal: {fileID: 100100000}
  serializedVersion: 6
  m_Component:
  - component: {fileID: 4150815779485230}
  - component: {fileID: 33742412865257962}
  - component: {fileID: 23263645788543448}
  m_Layer: 0
  m_Name: TriggerMesh
  m_TagString: Untagged
  m_Icon: {fileID: 0}
  m_NavMeshLayer: 0
  m_StaticEditorFlags: 0
  m_IsActive: 1
--- !u!1 &1999231418925806
GameObject:
  m_ObjectHideFlags: 0
  m_CorrespondingSourceObject: {fileID: 0}
  m_PrefabInternal: {fileID: 100100000}
  serializedVersion: 6
  m_Component:
  - component: {fileID: 4034273210191204}
  - component: {fileID: 114304295704005466}
  m_Layer: 0
  m_Name: Trigger
  m_TagString: Untagged
  m_Icon: {fileID: 0}
  m_NavMeshLayer: 0
  m_StaticEditorFlags: 0
  m_IsActive: 1
--- !u!4 &4005925152754270
Transform:
  m_ObjectHideFlags: 1
  m_CorrespondingSourceObject: {fileID: 0}
  m_PrefabInternal: {fileID: 100100000}
  m_GameObject: {fileID: 1227323183806068}
  m_LocalRotation: {x: 0, y: 0, z: 0, w: 1}
  m_LocalPosition: {x: 0, y: 0.0473, z: -0.1016}
  m_LocalScale: {x: 1, y: 1, z: 1}
  m_Children:
  - {fileID: 4662448783848952}
  m_Father: {fileID: 4822941029238526}
  m_RootOrder: 3
  m_LocalEulerAnglesHint: {x: 0, y: 0, z: 0}
--- !u!4 &4034273210191204
Transform:
  m_ObjectHideFlags: 1
  m_CorrespondingSourceObject: {fileID: 0}
  m_PrefabInternal: {fileID: 100100000}
  m_GameObject: {fileID: 1999231418925806}
  m_LocalRotation: {x: 0.000000081460335, y: 0, z: -0, w: 1}
  m_LocalPosition: {x: -0, y: 0, z: 0}
  m_LocalScale: {x: 1, y: 1, z: 1}
  m_Children:
  - {fileID: 4150815779485230}
  m_Father: {fileID: 4822941029238526}
  m_RootOrder: 7
  m_LocalEulerAnglesHint: {x: 0, y: 0, z: 0}
--- !u!4 &4132630188623038
Transform:
  m_ObjectHideFlags: 1
  m_CorrespondingSourceObject: {fileID: 0}
  m_PrefabInternal: {fileID: 100100000}
  m_GameObject: {fileID: 1025140099501064}
  m_LocalRotation: {x: 0.3834204, y: -0.57173485, z: -0.5592286, w: -0.46192148}
  m_LocalPosition: {x: 0.003, y: -0.028, z: -0.1648}
  m_LocalScale: {x: 1, y: 1, z: 1}
  m_Children: []
  m_Father: {fileID: 4822941029238526}
  m_RootOrder: 6
  m_LocalEulerAnglesHint: {x: 276.444, y: 62.276005, z: 44.172}
--- !u!4 &4150815779485230
Transform:
  m_ObjectHideFlags: 1
  m_CorrespondingSourceObject: {fileID: 0}
  m_PrefabInternal: {fileID: 100100000}
  m_GameObject: {fileID: 1940831690714846}
  m_LocalRotation: {x: -0, y: -0, z: -0, w: 1}
  m_LocalPosition: {x: 0, y: 0, z: 0}
  m_LocalScale: {x: 100.00067, y: 100.00018, z: 100.00068}
  m_Children: []
  m_Father: {fileID: 4034273210191204}
  m_RootOrder: 0
  m_LocalEulerAnglesHint: {x: 0, y: 0, z: 0}
--- !u!4 &4316107315163740
Transform:
  m_ObjectHideFlags: 1
  m_CorrespondingSourceObject: {fileID: 0}
  m_PrefabInternal: {fileID: 100100000}
  m_GameObject: {fileID: 1107610748939162}
  m_LocalRotation: {x: 0, y: 0, z: 0, w: 1}
  m_LocalPosition: {x: 0, y: 0, z: 0}
  m_LocalScale: {x: 100, y: 100, z: 100}
  m_Children: []
  m_Father: {fileID: 4822941029238526}
  m_RootOrder: 0
  m_LocalEulerAnglesHint: {x: 0, y: 0, z: 0}
--- !u!4 &4373261483140502
Transform:
  m_ObjectHideFlags: 1
  m_CorrespondingSourceObject: {fileID: 0}
  m_PrefabInternal: {fileID: 100100000}
  m_GameObject: {fileID: 1107029476908834}
  m_LocalRotation: {x: 0, y: 0, z: 0, w: 1}
  m_LocalPosition: {x: 0, y: 0, z: 0}
  m_LocalScale: {x: 1, y: 1, z: 1}
  m_Children:
  - {fileID: 4827566736662248}
  - {fileID: 4734075947627234}
  - {fileID: 4896803659858542}
  m_Father: {fileID: 4822941029238526}
  m_RootOrder: 4
  m_LocalEulerAnglesHint: {x: 0, y: 0, z: 0}
--- !u!4 &4392040473037160
Transform:
  m_ObjectHideFlags: 1
  m_CorrespondingSourceObject: {fileID: 0}
  m_PrefabInternal: {fileID: 100100000}
  m_GameObject: {fileID: 1759444562656748}
  m_LocalRotation: {x: 0, y: 0, z: 0, w: 1}
  m_LocalPosition: {x: 0, y: 0, z: 0}
  m_LocalScale: {x: 1, y: 1, z: 1}
  m_Children: []
  m_Father: {fileID: 4822941029238526}
  m_RootOrder: 8
  m_LocalEulerAnglesHint: {x: 0, y: 0, z: 0}
--- !u!4 &4521101036916434
Transform:
  m_ObjectHideFlags: 1
  m_CorrespondingSourceObject: {fileID: 0}
  m_PrefabInternal: {fileID: 100100000}
  m_GameObject: {fileID: 1465343483161208}
  m_LocalRotation: {x: 0, y: 0, z: 0, w: 1}
  m_LocalPosition: {x: 0, y: 0, z: 0}
  m_LocalScale: {x: 0.9999998, y: 1, z: 0.9999998}
  m_Children: []
  m_Father: {fileID: 4822941029238526}
  m_RootOrder: 9
  m_LocalEulerAnglesHint: {x: 0, y: 0, z: 0}
--- !u!4 &4630387520581884
Transform:
  m_ObjectHideFlags: 1
  m_CorrespondingSourceObject: {fileID: 0}
  m_PrefabInternal: {fileID: 100100000}
  m_GameObject: {fileID: 1358987159791032}
  m_LocalRotation: {x: 0.6303397, y: 0.34981763, z: -0.38081303, w: 0.5790345}
  m_LocalPosition: {x: 0.015, y: -0.03, z: -0.149}
  m_LocalScale: {x: 1, y: 1, z: 1}
  m_Children: []
  m_Father: {fileID: 4822941029238526}
  m_RootOrder: 5
  m_LocalEulerAnglesHint: {x: 94.858, y: 62.275993, z: 0}
--- !u!4 &4662448783848952
Transform:
  m_ObjectHideFlags: 1
  m_CorrespondingSourceObject: {fileID: 0}
  m_PrefabInternal: {fileID: 100100000}
  m_GameObject: {fileID: 1015291159734468}
  m_LocalRotation: {x: 0, y: 0, z: 0, w: 1}
  m_LocalPosition: {x: 0, y: 0, z: 0}
  m_LocalScale: {x: 1, y: 1, z: 1}
  m_Children:
  - {fileID: 4684897623888150}
  m_Father: {fileID: 4005925152754270}
  m_RootOrder: 0
  m_LocalEulerAnglesHint: {x: 0, y: 0, z: 0}
--- !u!4 &4684897623888150
Transform:
  m_ObjectHideFlags: 1
  m_CorrespondingSourceObject: {fileID: 0}
  m_PrefabInternal: {fileID: 100100000}
  m_GameObject: {fileID: 1893480650964642}
  m_LocalRotation: {x: 0.000000074505806, y: 0.000000014901161, z: -0.000000029802322,
    w: 1}
  m_LocalPosition: {x: 0, y: -0.0473, z: 0.1016}
  m_LocalScale: {x: 100.00003, y: 100.000015, z: 100.000015}
  m_Children: []
  m_Father: {fileID: 4662448783848952}
  m_RootOrder: 0
  m_LocalEulerAnglesHint: {x: 0, y: 0, z: 0}
--- !u!4 &4734075947627234
Transform:
  m_ObjectHideFlags: 1
  m_CorrespondingSourceObject: {fileID: 0}
  m_PrefabInternal: {fileID: 100100000}
  m_GameObject: {fileID: 1206109913089006}
  m_LocalRotation: {x: -0, y: -0, z: -0.000000014901161, w: 1}
  m_LocalPosition: {x: 0.0062999637, y: 0.0456, z: 0.0092}
  m_LocalScale: {x: 0.03658995, y: 0.045176, z: 0.25024405}
  m_Children: []
  m_Father: {fileID: 4373261483140502}
  m_RootOrder: 1
  m_LocalEulerAnglesHint: {x: 0, y: 0, z: 0}
--- !u!4 &4772091247898022
Transform:
  m_ObjectHideFlags: 1
  m_CorrespondingSourceObject: {fileID: 0}
  m_PrefabInternal: {fileID: 100100000}
  m_GameObject: {fileID: 1568049640457496}
  m_LocalRotation: {x: 0.00000008940699, y: -0, z: -0.000000029802326, w: 1}
  m_LocalPosition: {x: -0.00016945686, y: -0.00050008297, z: -0.00010001658}
  m_LocalScale: {x: 100.00028, y: 100, z: 100.00028}
  m_Children: []
  m_Father: {fileID: 4822941029238526}
  m_RootOrder: 1
  m_LocalEulerAnglesHint: {x: 0, y: 0, z: 0}
--- !u!4 &4822941029238526
Transform:
  m_ObjectHideFlags: 1
  m_CorrespondingSourceObject: {fileID: 0}
  m_PrefabInternal: {fileID: 100100000}
  m_GameObject: {fileID: 1461462828993820}
  m_LocalRotation: {x: -0, y: 0.7071068, z: -0, w: 0.7071068}
  m_LocalPosition: {x: 0.427, y: 0.921, z: -0.007}
  m_LocalScale: {x: 1.0000005, y: 1, z: 1.0000005}
  m_Children:
  - {fileID: 4316107315163740}
  - {fileID: 4772091247898022}
  - {fileID: 4834290795239770}
  - {fileID: 4005925152754270}
  - {fileID: 4373261483140502}
  - {fileID: 4630387520581884}
  - {fileID: 4132630188623038}
  - {fileID: 4034273210191204}
  - {fileID: 4392040473037160}
  - {fileID: 4521101036916434}
  m_Father: {fileID: 0}
  m_RootOrder: 0
  m_LocalEulerAnglesHint: {x: 0, y: 90, z: 0}
--- !u!4 &4827566736662248
Transform:
  m_ObjectHideFlags: 1
  m_CorrespondingSourceObject: {fileID: 0}
  m_PrefabInternal: {fileID: 100100000}
  m_GameObject: {fileID: 1780028690085526}
  m_LocalRotation: {x: 0, y: 0, z: 0, w: 1}
  m_LocalPosition: {x: 0.0063, y: -0.0338, z: -0.0931}
  m_LocalScale: {x: 0.036586195, y: 0.089170605, z: 0.06102563}
  m_Children: []
  m_Father: {fileID: 4373261483140502}
  m_RootOrder: 0
  m_LocalEulerAnglesHint: {x: 0, y: 0, z: 0}
--- !u!4 &4834290795239770
Transform:
  m_ObjectHideFlags: 1
  m_CorrespondingSourceObject: {fileID: 0}
  m_PrefabInternal: {fileID: 100100000}
  m_GameObject: {fileID: 1548943531659166}
  m_LocalRotation: {x: 0.000000081460335, y: 0, z: -0, w: 1}
  m_LocalPosition: {x: -0, y: 0, z: 0}
  m_LocalScale: {x: 100, y: 100, z: 100}
  m_Children: []
  m_Father: {fileID: 4822941029238526}
  m_RootOrder: 2
  m_LocalEulerAnglesHint: {x: 0, y: 0, z: 0}
--- !u!4 &4896803659858542
Transform:
  m_ObjectHideFlags: 1
  m_CorrespondingSourceObject: {fileID: 0}
  m_PrefabInternal: {fileID: 100100000}
  m_GameObject: {fileID: 1342500942892940}
  m_LocalRotation: {x: -0, y: -0, z: -0.000000014901161, w: 1}
  m_LocalPosition: {x: 0.0062999637, y: 0.0057, z: -0.0444}
  m_LocalScale: {x: 0.03658995, y: 0.045179956, z: 0.14382325}
  m_Children: []
  m_Father: {fileID: 4373261483140502}
  m_RootOrder: 2
  m_LocalEulerAnglesHint: {x: 0, y: 0, z: 0}
--- !u!23 &23095053457359780
MeshRenderer:
  m_ObjectHideFlags: 1
  m_CorrespondingSourceObject: {fileID: 0}
  m_PrefabInternal: {fileID: 100100000}
  m_GameObject: {fileID: 1568049640457496}
  m_Enabled: 1
  m_CastShadows: 1
  m_ReceiveShadows: 1
  m_DynamicOccludee: 1
  m_MotionVectors: 1
  m_LightProbeUsage: 1
  m_ReflectionProbeUsage: 1
  m_RenderingLayerMask: 4294967295
  m_Materials:
  - {fileID: 2100000, guid: 3aca4eaf2f5cc08449e02c7b9c3272b1, type: 2}
  m_StaticBatchInfo:
    firstSubMesh: 0
    subMeshCount: 0
  m_StaticBatchRoot: {fileID: 0}
  m_ProbeAnchor: {fileID: 0}
  m_LightProbeVolumeOverride: {fileID: 0}
  m_ScaleInLightmap: 1
  m_PreserveUVs: 0
  m_IgnoreNormalsForChartDetection: 0
  m_ImportantGI: 0
  m_StitchLightmapSeams: 0
  m_SelectedEditorRenderState: 3
  m_MinimumChartSize: 4
  m_AutoUVMaxDistance: 0.5
  m_AutoUVMaxAngle: 89
  m_LightmapParameters: {fileID: 0}
  m_SortingLayerID: 0
  m_SortingLayer: 0
  m_SortingOrder: 0
--- !u!23 &23263645788543448
MeshRenderer:
  m_ObjectHideFlags: 1
  m_CorrespondingSourceObject: {fileID: 0}
  m_PrefabInternal: {fileID: 100100000}
  m_GameObject: {fileID: 1940831690714846}
  m_Enabled: 1
  m_CastShadows: 1
  m_ReceiveShadows: 1
  m_DynamicOccludee: 1
  m_MotionVectors: 1
  m_LightProbeUsage: 1
  m_ReflectionProbeUsage: 1
  m_RenderingLayerMask: 4294967295
  m_Materials:
  - {fileID: 2100000, guid: 3aca4eaf2f5cc08449e02c7b9c3272b1, type: 2}
  m_StaticBatchInfo:
    firstSubMesh: 0
    subMeshCount: 0
  m_StaticBatchRoot: {fileID: 0}
  m_ProbeAnchor: {fileID: 0}
  m_LightProbeVolumeOverride: {fileID: 0}
  m_ScaleInLightmap: 1
  m_PreserveUVs: 0
  m_IgnoreNormalsForChartDetection: 0
  m_ImportantGI: 0
  m_StitchLightmapSeams: 0
  m_SelectedEditorRenderState: 3
  m_MinimumChartSize: 4
  m_AutoUVMaxDistance: 0.5
  m_AutoUVMaxAngle: 89
  m_LightmapParameters: {fileID: 0}
  m_SortingLayerID: 0
  m_SortingLayer: 0
  m_SortingOrder: 0
--- !u!23 &23441195276258276
MeshRenderer:
  m_ObjectHideFlags: 1
  m_CorrespondingSourceObject: {fileID: 0}
  m_PrefabInternal: {fileID: 100100000}
  m_GameObject: {fileID: 1893480650964642}
  m_Enabled: 1
  m_CastShadows: 1
  m_ReceiveShadows: 1
  m_DynamicOccludee: 1
  m_MotionVectors: 1
  m_LightProbeUsage: 1
  m_ReflectionProbeUsage: 1
  m_RenderingLayerMask: 4294967295
  m_Materials:
  - {fileID: 2100000, guid: 3aca4eaf2f5cc08449e02c7b9c3272b1, type: 2}
  m_StaticBatchInfo:
    firstSubMesh: 0
    subMeshCount: 0
  m_StaticBatchRoot: {fileID: 0}
  m_ProbeAnchor: {fileID: 0}
  m_LightProbeVolumeOverride: {fileID: 0}
  m_ScaleInLightmap: 1
  m_PreserveUVs: 0
  m_IgnoreNormalsForChartDetection: 0
  m_ImportantGI: 0
  m_StitchLightmapSeams: 0
  m_SelectedEditorRenderState: 3
  m_MinimumChartSize: 4
  m_AutoUVMaxDistance: 0.5
  m_AutoUVMaxAngle: 89
  m_LightmapParameters: {fileID: 0}
  m_SortingLayerID: 0
  m_SortingLayer: 0
  m_SortingOrder: 0
--- !u!23 &23828450811081016
MeshRenderer:
  m_ObjectHideFlags: 1
  m_CorrespondingSourceObject: {fileID: 0}
  m_PrefabInternal: {fileID: 100100000}
  m_GameObject: {fileID: 1107610748939162}
  m_Enabled: 1
  m_CastShadows: 1
  m_ReceiveShadows: 1
  m_DynamicOccludee: 1
  m_MotionVectors: 1
  m_LightProbeUsage: 1
  m_ReflectionProbeUsage: 1
  m_RenderingLayerMask: 4294967295
  m_Materials:
  - {fileID: 2100000, guid: 3aca4eaf2f5cc08449e02c7b9c3272b1, type: 2}
  m_StaticBatchInfo:
    firstSubMesh: 0
    subMeshCount: 0
  m_StaticBatchRoot: {fileID: 0}
  m_ProbeAnchor: {fileID: 0}
  m_LightProbeVolumeOverride: {fileID: 0}
  m_ScaleInLightmap: 1
  m_PreserveUVs: 0
  m_IgnoreNormalsForChartDetection: 0
  m_ImportantGI: 0
  m_StitchLightmapSeams: 0
  m_SelectedEditorRenderState: 3
  m_MinimumChartSize: 4
  m_AutoUVMaxDistance: 0.5
  m_AutoUVMaxAngle: 89
  m_LightmapParameters: {fileID: 0}
  m_SortingLayerID: 0
  m_SortingLayer: 0
  m_SortingOrder: 0
--- !u!33 &33321770462787144
MeshFilter:
  m_ObjectHideFlags: 1
  m_CorrespondingSourceObject: {fileID: 0}
  m_PrefabInternal: {fileID: 100100000}
  m_GameObject: {fileID: 1893480650964642}
  m_Mesh: {fileID: 4300008, guid: 7afe12bdb45cf8e43853abd3d982e0a2, type: 3}
--- !u!33 &33610050788971548
MeshFilter:
  m_ObjectHideFlags: 1
  m_CorrespondingSourceObject: {fileID: 0}
  m_PrefabInternal: {fileID: 100100000}
  m_GameObject: {fileID: 1107610748939162}
  m_Mesh: {fileID: 4300000, guid: 7afe12bdb45cf8e43853abd3d982e0a2, type: 3}
--- !u!33 &33742412865257962
MeshFilter:
  m_ObjectHideFlags: 1
  m_CorrespondingSourceObject: {fileID: 0}
  m_PrefabInternal: {fileID: 100100000}
  m_GameObject: {fileID: 1940831690714846}
  m_Mesh: {fileID: 4300006, guid: 7afe12bdb45cf8e43853abd3d982e0a2, type: 3}
--- !u!33 &33791627694088360
MeshFilter:
  m_ObjectHideFlags: 1
  m_CorrespondingSourceObject: {fileID: 0}
  m_PrefabInternal: {fileID: 100100000}
  m_GameObject: {fileID: 1568049640457496}
  m_Mesh: {fileID: 4300002, guid: 7afe12bdb45cf8e43853abd3d982e0a2, type: 3}
--- !u!54 &54415974846392048
Rigidbody:
  m_ObjectHideFlags: 1
  m_CorrespondingSourceObject: {fileID: 0}
  m_PrefabInternal: {fileID: 100100000}
  m_GameObject: {fileID: 1461462828993820}
  serializedVersion: 2
  m_Mass: 1
  m_Drag: 0
  m_AngularDrag: 0.05
  m_UseGravity: 1
  m_IsKinematic: 1
  m_Interpolate: 1
  m_Constraints: 0
  m_CollisionDetection: 0
--- !u!65 &65340560638007698
BoxCollider:
  m_ObjectHideFlags: 1
  m_CorrespondingSourceObject: {fileID: 0}
  m_PrefabInternal: {fileID: 100100000}
  m_GameObject: {fileID: 1465343483161208}
  m_Material: {fileID: 0}
  m_IsTrigger: 1
  m_Enabled: 1
  serializedVersion: 2
  m_Size: {x: 0.001, y: 0.001, z: 0.001}
  m_Center: {x: 0, y: 0, z: 0}
--- !u!65 &65365373750493468
BoxCollider:
  m_ObjectHideFlags: 1
  m_CorrespondingSourceObject: {fileID: 0}
  m_PrefabInternal: {fileID: 100100000}
  m_GameObject: {fileID: 1780028690085526}
  m_Material: {fileID: 0}
  m_IsTrigger: 0
  m_Enabled: 1
  serializedVersion: 2
  m_Size: {x: 1, y: 1, z: 1}
  m_Center: {x: 0, y: 0, z: 0}
--- !u!65 &65639555971468508
BoxCollider:
  m_ObjectHideFlags: 1
  m_CorrespondingSourceObject: {fileID: 0}
  m_PrefabInternal: {fileID: 100100000}
  m_GameObject: {fileID: 1206109913089006}
  m_Material: {fileID: 0}
  m_IsTrigger: 0
  m_Enabled: 1
  serializedVersion: 2
  m_Size: {x: 1, y: 1, z: 1}
  m_Center: {x: 0, y: 0, z: 0}
--- !u!65 &65706140404246384
BoxCollider:
  m_ObjectHideFlags: 1
  m_CorrespondingSourceObject: {fileID: 0}
  m_PrefabInternal: {fileID: 100100000}
  m_GameObject: {fileID: 1342500942892940}
  m_Material: {fileID: 0}
  m_IsTrigger: 0
  m_Enabled: 1
  serializedVersion: 2
  m_Size: {x: 1, y: 1, z: 1}
  m_Center: {x: 0, y: 0, z: 0}
--- !u!65 &65856428845453672
BoxCollider:
  m_ObjectHideFlags: 1
  m_CorrespondingSourceObject: {fileID: 0}
  m_PrefabInternal: {fileID: 100100000}
  m_GameObject: {fileID: 1759444562656748}
  m_Material: {fileID: 0}
  m_IsTrigger: 1
  m_Enabled: 1
  serializedVersion: 2
  m_Size: {x: 0.001, y: 0.001, z: 0.001}
  m_Center: {x: 0, y: 0, z: 0}
--- !u!111 &111491264926651898
Animation:
  m_ObjectHideFlags: 1
  m_CorrespondingSourceObject: {fileID: 0}
  m_PrefabInternal: {fileID: 100100000}
  m_GameObject: {fileID: 1227323183806068}
  m_Enabled: 1
  serializedVersion: 3
  m_Animation: {fileID: 7400000, guid: e1cf98e23c9fb1645937321b4b68206e, type: 2}
  m_Animations:
  - {fileID: 7400000, guid: e1cf98e23c9fb1645937321b4b68206e, type: 2}
  m_WrapMode: 0
  m_PlayAutomatically: 0
  m_AnimatePhysics: 0
  m_CullingType: 0
--- !u!114 &114020670875759964
MonoBehaviour:
  m_ObjectHideFlags: 1
  m_CorrespondingSourceObject: {fileID: 0}
  m_PrefabInternal: {fileID: 100100000}
  m_GameObject: {fileID: 1342500942892940}
  m_Enabled: 1
  m_EditorHideFlags: 0
  m_Script: {fileID: 11500000, guid: cb3807654d24c1f44bc24787b648936d, type: 3}
  m_Name: 
  m_EditorClassIdentifier: 
  item: {fileID: 114851675638818266}
--- !u!114 &114092554364676314
MonoBehaviour:
  m_ObjectHideFlags: 1
  m_CorrespondingSourceObject: {fileID: 0}
  m_PrefabInternal: {fileID: 100100000}
  m_GameObject: {fileID: 1780028690085526}
  m_Enabled: 1
  m_EditorHideFlags: 0
  m_Script: {fileID: 11500000, guid: cb3807654d24c1f44bc24787b648936d, type: 3}
  m_Name: 
  m_EditorClassIdentifier: 
  item: {fileID: 114851675638818266}
--- !u!114 &114304295704005466
MonoBehaviour:
  m_ObjectHideFlags: 1
  m_CorrespondingSourceObject: {fileID: 0}
  m_PrefabInternal: {fileID: 100100000}
  m_GameObject: {fileID: 1999231418925806}
  m_Enabled: 1
  m_EditorHideFlags: 0
  m_Script: {fileID: 11500000, guid: bb03b77778e99dc4aad0131c0711eda3, type: 3}
  m_Name: 
  m_EditorClassIdentifier: 
  gunHandler: {fileID: 114851675638818266}
  defaultTriggerPosition: {x: -0, y: 0, z: 0}
  defaultTriggerRotation: {x: 0.000000081460335, y: 0, z: -0, w: 1}
  pulledTriggerPosition: {x: -0, y: -0.0114, z: -0.011}
  pulledTriggerRotation: {x: 0.2531216, y: 0, z: 0, w: 0.96743447}
  resetToDefaultOnShoot: 0
  triggerPulled: 0
--- !u!114 &114518597169539074
MonoBehaviour:
  m_ObjectHideFlags: 1
  m_CorrespondingSourceObject: {fileID: 0}
  m_PrefabInternal: {fileID: 100100000}
  m_GameObject: {fileID: 1759444562656748}
  m_Enabled: 1
  m_EditorHideFlags: 0
  m_Script: {fileID: 11500000, guid: abad16ad2b7d55d4ab17dbeebb011a20, type: 3}
  m_Name: 
  m_EditorClassIdentifier: 
  item: {fileID: 4392040473037160}
  hovers: []
  triggerColliders: []
  leftHandIKAnchor: {fileID: 0}
  rightHandIKAnchor: {fileID: 0}
  leftHandIKPoseName: 
  rightHandIkPoseName: 
  parents:
  - {fileID: 114851675638818266}
  itemId: 
  canBeHeld: 0
  interactionDisabled: 0
  globalHoldType: 0
  holdType: 0
  globalUseBreakDistance: 0
  useBreakDistance: 0
  globalBreakDistance: 0
  breakDistance: 0.1
  linkedLeftAndRightHeldPositions: 1
  heldPosition: {x: 0, y: 0, z: 0}
  heldRotation: {x: 0, y: 0, z: 0, w: 1}
  heldPositionRightHand: {x: 0, y: 0, z: 0}
  heldRotationRightHand: {x: 0, y: 0, z: 0, w: 1}
  globalThrowBoost: 0
  throwBoost: 1
  globalFollowForce: 0
  followForce: 1
  globalInteractionDistance: 0
  interactionDistance: 0.1
  globalLimitAcceptedAction: 0
  limitAcceptedAction: 0
  globalAcceptedActions: 0
  acceptedActionsFoldout: 0
  acceptedActions: []
  hoverModes: 
  defaultShaders: []
  hoverShaders: []
  defaultMats: []
  hoverMats: []
  globalToggleToPickup: 0
  toggleToPickup: 0
  pickupEvent:
    m_PersistentCalls:
      m_Calls: []
    m_TypeName: UnityEngine.Events.UnityEvent, UnityEngine.CoreModule, Version=0.0.0.0,
      Culture=neutral, PublicKeyToken=null
  dropEvent:
    m_PersistentCalls:
      m_Calls: []
    m_TypeName: UnityEngine.Events.UnityEvent, UnityEngine.CoreModule, Version=0.0.0.0,
      Culture=neutral, PublicKeyToken=null
  enableHoverEvent:
    m_PersistentCalls:
      m_Calls: []
    m_TypeName: UnityEngine.Events.UnityEvent, UnityEngine.CoreModule, Version=0.0.0.0,
      Culture=neutral, PublicKeyToken=null
  disableHoverEvent:
    m_PersistentCalls:
      m_Calls: []
    m_TypeName: UnityEngine.Events.UnityEvent, UnityEngine.CoreModule, Version=0.0.0.0,
      Culture=neutral, PublicKeyToken=null
  audioSource: {fileID: 0}
  enterHover: {fileID: 0}
  exitHover: {fileID: 0}
  pickupSound: {fileID: 0}
  dropSound: {fileID: 0}
  forceGrabSound: {fileID: 0}
  hoverFoldout: 0
  triggersFoldout: 0
  soundsFoldout: 0
  ikFoldout: 0
  attachmentRefs:
  - localPosition: {x: 0, y: 0, z: 0}
    localRotation: {x: 0, y: 0, z: 0, w: 1}
    entryPosition: {x: 0, y: 0, z: 0}
    gunHandlerAttachmentId: 0
    receiverAttachmentId: 0
    weaponPrefab: {fileID: 1461462828993820}
    useNewShootDirection: 0
    newShootOrigin: {x: 0, y: 0, z: 0}
    newShootDirection: {x: 0, y: 0, z: 0}
    newShotMode: 0
    newBulletsPerShot: 6
    newConeSize: 2.5
    newFireSound: {fileID: 0}
    newDryFireSound: {fileID: 0}
    useLaserSight: 0
    laserPointOrigin: {x: 0, y: 0, z: 0}
  slideAttachment: 0
  autoLoad: 0
  autoLoadSpeed: 1
  showHighlight: 1
  attachEvent:
    m_PersistentCalls:
      m_Calls: []
    m_TypeName: UnityEngine.Events.UnityEvent, UnityEngine.CoreModule, Version=0.0.0.0,
      Culture=neutral, PublicKeyToken=null
  detatchEvent:
    m_PersistentCalls:
      m_Calls: []
    m_TypeName: UnityEngine.Events.UnityEvent, UnityEngine.CoreModule, Version=0.0.0.0,
      Culture=neutral, PublicKeyToken=null
  attachSound: {fileID: 0}
  detatchSound: {fileID: 0}
  highlightMaterial: {fileID: 0}
  readyToAttachMaterial: {fileID: 0}
  currentReceiver: {fileID: 0}
  infiniteAmmo: 1
  clipSize: 16
  bulletId: 0
  addBulletOnLoad: 1
  replaceBulletsWithSpentCasings: 0
  startFull: 1
  bulletReceiver: {fileID: 0}
  bulletPrefab: {fileID: 0}
  bulletParent: {fileID: 0}
  bulletVisible: 
  bulletPositions: []
  bulletRotations: []
  bulletEjectionPositions: []
  loadBulletSound: {fileID: 0}
--- !u!114 &114598299233302280
MonoBehaviour:
  m_ObjectHideFlags: 1
  m_CorrespondingSourceObject: {fileID: 0}
  m_PrefabInternal: {fileID: 100100000}
  m_GameObject: {fileID: 1461462828993820}
  m_Enabled: 1
  m_EditorHideFlags: 0
  m_Script: {fileID: 11500000, guid: 54de535c42355564ca3a82bab25dc7b7, type: 3}
  m_Name: 
  m_EditorClassIdentifier: 
  gunHandler: {fileID: 114851675638818266}
--- !u!114 &114631063050523220
MonoBehaviour:
  m_ObjectHideFlags: 1
  m_CorrespondingSourceObject: {fileID: 0}
  m_PrefabInternal: {fileID: 100100000}
  m_GameObject: {fileID: 1465343483161208}
  m_Enabled: 1
  m_EditorHideFlags: 0
  m_Script: {fileID: 11500000, guid: 6a388c53678530c40a21f6a8e63a08b2, type: 3}
  m_Name: 
  m_EditorClassIdentifier: 
  gunHandler: {fileID: 114851675638818266}
  attachmentId: 0
  attachEvent:
    m_PersistentCalls:
      m_Calls: []
    m_TypeName: UnityEngine.Events.UnityEvent, UnityEngine.CoreModule, Version=0.0.0.0,
      Culture=neutral, PublicKeyToken=null
  detachEvent:
    m_PersistentCalls:
      m_Calls: []
    m_TypeName: UnityEngine.Events.UnityEvent, UnityEngine.CoreModule, Version=0.0.0.0,
      Culture=neutral, PublicKeyToken=null
--- !u!114 &114791012784540550
MonoBehaviour:
  m_ObjectHideFlags: 1
  m_CorrespondingSourceObject: {fileID: 0}
  m_PrefabInternal: {fileID: 100100000}
  m_GameObject: {fileID: 1206109913089006}
  m_Enabled: 1
  m_EditorHideFlags: 0
  m_Script: {fileID: 11500000, guid: cb3807654d24c1f44bc24787b648936d, type: 3}
  m_Name: 
  m_EditorClassIdentifier: 
  item: {fileID: 114851675638818266}
--- !u!114 &114851675638818266
MonoBehaviour:
  m_ObjectHideFlags: 1
  m_CorrespondingSourceObject: {fileID: 0}
  m_PrefabInternal: {fileID: 100100000}
  m_GameObject: {fileID: 1548943531659166}
  m_Enabled: 1
  m_EditorHideFlags: 0
  m_Script: {fileID: 11500000, guid: e463d2fbb8664294b9a3787425b4c0b8, type: 3}
  m_Name: 
  m_EditorClassIdentifier: 
  item: {fileID: 4822941029238526}
  hovers:
  - {fileID: 23828450811081016}
  - {fileID: 23441195276258276}
  - {fileID: 23263645788543448}
  - {fileID: 23095053457359780}
  triggerColliders: []
  leftHandIKAnchor: {fileID: 4630387520581884}
  rightHandIKAnchor: {fileID: 4132630188623038}
  leftHandIKPoseName: 
  rightHandIkPoseName: 
  parents: []
  itemId: 
  canBeHeld: 1
  interactionDisabled: 0
  globalHoldType: 0
  holdType: 0
  globalUseBreakDistance: 1
  useBreakDistance: 0
  globalBreakDistance: 0
  breakDistance: 0.1
  linkedLeftAndRightHeldPositions: 1
  heldPosition: {x: -0.015, y: -0.039, z: 0.037}
  heldRotation: {x: 0.16263488, y: -0.014376904, z: 0.000017879996, w: 0.9865816}
  heldPositionRightHand: {x: 0, y: 0, z: 0}
  heldRotationRightHand: {x: 0, y: 0, z: 0, w: 1}
  globalThrowBoost: 1
  throwBoost: 1
  globalFollowForce: 1
  followForce: 1
  globalInteractionDistance: 0
  interactionDistance: 0.2
  globalLimitAcceptedAction: 0
  limitAcceptedAction: 0
  globalAcceptedActions: 0
  acceptedActionsFoldout: 0
  acceptedActions: []
  hoverModes: 00000000000000000000000000000000
  defaultShaders:
  - {fileID: 0}
  - {fileID: 0}
  - {fileID: 0}
  - {fileID: 0}
  hoverShaders:
  - {fileID: 0}
  - {fileID: 0}
  - {fileID: 0}
  - {fileID: 0}
  defaultMats:
  - {fileID: 0}
  - {fileID: 0}
  - {fileID: 0}
  - {fileID: 0}
  hoverMats:
  - {fileID: 0}
  - {fileID: 0}
  - {fileID: 0}
  - {fileID: 0}
  globalToggleToPickup: 1
  toggleToPickup: 1
  pickupEvent:
    m_PersistentCalls:
      m_Calls: []
    m_TypeName: UnityEngine.Events.UnityEvent, UnityEngine.CoreModule, Version=0.0.0.0,
      Culture=neutral, PublicKeyToken=null
  dropEvent:
    m_PersistentCalls:
      m_Calls: []
    m_TypeName: UnityEngine.Events.UnityEvent, UnityEngine.CoreModule, Version=0.0.0.0,
      Culture=neutral, PublicKeyToken=null
  enableHoverEvent:
    m_PersistentCalls:
      m_Calls: []
    m_TypeName: UnityEngine.Events.UnityEvent, UnityEngine.CoreModule, Version=0.0.0.0,
      Culture=neutral, PublicKeyToken=null
  disableHoverEvent:
    m_PersistentCalls:
      m_Calls: []
    m_TypeName: UnityEngine.Events.UnityEvent, UnityEngine.CoreModule, Version=0.0.0.0,
      Culture=neutral, PublicKeyToken=null
  audioSource: {fileID: 0}
  enterHover: {fileID: 0}
  exitHover: {fileID: 0}
  pickupSound: {fileID: 0}
  dropSound: {fileID: 0}
  forceGrabSound: {fileID: 0}
  hoverFoldout: 0
  triggersFoldout: 0
  soundsFoldout: 0
  ikFoldout: 0
  firingMode: 0
  shotMode: 0
  defaultPosition: {x: -0, y: 0, z: 0}
  defaultRotation: {x: 0.000000081460335, y: 0, z: -0, w: 1}
  bulletId: 1
  damage: 10
  bulletForce: 0
  shootLayers: []
  ignoreShootLayers: 1
  autoEjectEmptyMag: 0
  useChamberBullet: 0
  ejectCasingOnFire: 0
  ejectCasingOnSlidePull: 0
  ejectBulletOnSlidePull: 1
  requireMagToShoot: 0
  fireType: 1
  damageMethodName: Damage
  trigger: {fileID: 114304295704005466}
  slide: {fileID: 0}
  bulletReceiver: {fileID: 0}
  secondHeld: {fileID: 0}
  playOnFire:
  - {fileID: 111491264926651898}
  playOnSuccessfulFire: []
  attachmentId: 0
  attachmentPrefabs:
  - attachmentPrefab: {fileID: 1759444562656748}
    attachmentReceiver: {fileID: 114631063050523220}
    startLoaded: 1
    isPrefab: 0
  bulletDecalPrefab: {fileID: 0}
  spawnOnFire:
  - {fileID: 1000011950633266, guid: fd16f026e93064f46abf313307e9ecff, type: 2}
  loadedBulletPrefab: {fileID: 0}
  spentBulletPrefab: {fileID: 0}
  laserPointerMat: {fileID: 2100000, guid: 2c7501606be0deb4da2d8e4f34d51e72, type: 2}
  tracerMat: {fileID: 0}
  physicalBullet: {fileID: 1306173667484114, guid: 6fc5a8a07db0a7747bf512e66cfbdf56,
    type: 2}
  fireRate: 0.1
  bulletsPerShot: 6
  coneSize: 2.5
  recoilKick: 1
  angularRecoilKick: 0.25
  recoilRecovery: 1
  angularRecoilMultiStep: 0.2
  shootOrigin: {x: 0, y: 0.0587, z: 0.1331}
  shootDirection: {x: 0, y: 0, z: 0.87899995}
  loadedBulletPosition: {x: 0.0077, y: 0.0542, z: -0.0551}
  loadedBulletRotation: {x: 0, y: 0, z: 0, w: 1}
  bulletEjectionDirection: {x: 0, y: 2, z: 0}
  bulletEjectionPush: 0.05
  firingOrigin: {x: 0, y: 0, z: 0}
  firingDirection: {x: 0, y: 0, z: 0}
  laserPointerOrigin: {x: 0, y: 0.019, z: 0.071}
  laserPointerEnabled: 1
  playOnFireCount: 1
  playOnSuccessfulFireCount: 0
  spawnOnFireCount: 1
  spawnOnFirePositions:
  - {x: 0.007, y: 0.057, z: 0.183}
  spawnOnFireRotations:
  - {x: 1, y: -0.00000004371139, z: -0.00000004371139, w: 1.9106855e-15}
  laserPointerLineWidth: 0.01
  tracerLineWidth: 0.01
  fireSound: {fileID: 8300000, guid: ac43af80c49cc9845b1a5035b8be1cfe, type: 3}
  dryFireSound: {fileID: 8300000, guid: c60b0ba13dd5d0b4886ab7b7f3aa22a4, type: 3}
  slidePulled: {fileID: 8300000, guid: a1a7278987330ec42bbe91a2eca3a9e9, type: 3}
  slideRelease: {fileID: 8300000, guid: 3ec02e3dd24b2a744969a6acbf7eb84f, type: 3}
  loadMagazine: {fileID: 8300000, guid: 1089fffcb67365f48922a9ff5ce775e8, type: 3}
  unloadMagazine: {fileID: 8300000, guid: a76c94a6194667248bad21695e8419db, type: 3}
