%YAML 1.1
%TAG !u! tag:unity3d.com,2011:
--- !u!114 &11400000
MonoBehaviour:
  m_ObjectHideFlags: 0
  m_CorrespondingSourceObject: {fileID: 0}
  m_PrefabInstance: {fileID: 0}
  m_PrefabAsset: {fileID: 0}
  m_GameObject: {fileID: 0}
  m_Enabled: 1
  m_EditorHideFlags: 0
  m_Script: {fileID: 11500000, guid: bdad7386d1eeedc4cb4d9f8a6267c608, type: 3}
  m_Name: Item_Cube
  m_EditorClassIdentifier: 
  displayPrefab: {fileID: 8207784335408659677, guid: 42e7aa861a2959244857a7e7fd51da2f, type: 3}
  gamePrefab: {fileID: 4853525503489427852, guid: 58ee4be17fd9d17448c5cba67b33c5ea, type: 3}
