%YAML 1.1
%TAG !u! tag:unity3d.com,2011:
--- !u!1001 &100100000
Prefab:
  m_ObjectHideFlags: 1
  serializedVersion: 2
  m_Modification:
    m_TransformParent: {fileID: 0}
    m_Modifications: []
    m_RemovedComponents: []
  m_SourcePrefab: {fileID: 0}
  m_RootGameObject: {fileID: 1000010421084438}
  m_IsPrefabAsset: 1
--- !u!1 &1000010421084438
GameObject:
  m_ObjectHideFlags: 0
  m_CorrespondingSourceObject: {fileID: 0}
  m_PrefabInternal: {fileID: 100100000}
  serializedVersion: 6
  m_Component:
  - component: {fileID: 4000010824048654}
  - component: {fileID: 54000012605867156}
  - component: {fileID: 65000012975051628}
  - component: {fileID: 114012579914097520}
  m_Layer: 0
  m_Name: WPN_M9_Magazine
  m_TagString: Untagged
  m_Icon: {fileID: 0}
  m_NavMeshLayer: 0
  m_StaticEditorFlags: 0
  m_IsActive: 1
--- !u!1 &1000012664123726
GameObject:
  m_ObjectHideFlags: 0
  m_CorrespondingSourceObject: {fileID: 0}
  m_PrefabInternal: {fileID: 100100000}
  serializedVersion: 6
  m_Component:
  - component: {fileID: 4000012733197912}
  - component: {fileID: 65000012135469974}
  - component: {fileID: 114000010634924896}
  m_Layer: 0
  m_Name: BulletReceiver
  m_TagString: Untagged
  m_Icon: {fileID: 0}
  m_NavMeshLayer: 0
  m_StaticEditorFlags: 0
  m_IsActive: 1
--- !u!1 &1000012664416582
GameObject:
  m_ObjectHideFlags: 0
  m_CorrespondingSourceObject: {fileID: 0}
  m_PrefabInternal: {fileID: 100100000}
  serializedVersion: 6
  m_Component:
  - component: {fileID: 4000011344801272}
  - component: {fileID: 114000013729374306}
  - component: {fileID: 65841288565024350}
  m_Layer: 0
  m_Name: Mag Script
  m_TagString: Untagged
  m_Icon: {fileID: 0}
  m_NavMeshLayer: 0
  m_StaticEditorFlags: 0
  m_IsActive: 1
--- !u!1 &1294474247649886
GameObject:
  m_ObjectHideFlags: 0
  m_CorrespondingSourceObject: {fileID: 0}
  m_PrefabInternal: {fileID: 100100000}
  serializedVersion: 6
  m_Component:
  - component: {fileID: 4246335845377712}
  m_Layer: 0
  m_Name: RightIK
  m_TagString: Untagged
  m_Icon: {fileID: 0}
  m_NavMeshLayer: 0
  m_StaticEditorFlags: 0
  m_IsActive: 1
--- !u!1 &1870072406611714
GameObject:
  m_ObjectHideFlags: 0
  m_CorrespondingSourceObject: {fileID: 0}
  m_PrefabInternal: {fileID: 100100000}
  serializedVersion: 6
  m_Component:
  - component: {fileID: 4416633949928884}
  - component: {fileID: 33395202494341006}
  - component: {fileID: 23354928532920164}
  m_Layer: 0
  m_Name: Mesh
  m_TagString: Untagged
  m_Icon: {fileID: 0}
  m_NavMeshLayer: 0
  m_StaticEditorFlags: 0
  m_IsActive: 1
--- !u!1 &1872296119283094
GameObject:
  m_ObjectHideFlags: 0
  m_CorrespondingSourceObject: {fileID: 0}
  m_PrefabInternal: {fileID: 100100000}
  serializedVersion: 6
  m_Component:
  - component: {fileID: 4769101436843838}
  m_Layer: 0
  m_Name: LeftIK
  m_TagString: Untagged
  m_Icon: {fileID: 0}
  m_NavMeshLayer: 0
  m_StaticEditorFlags: 0
  m_IsActive: 1
--- !u!4 &4000010824048654
Transform:
  m_ObjectHideFlags: 1
  m_CorrespondingSourceObject: {fileID: 0}
  m_PrefabInternal: {fileID: 100100000}
  m_GameObject: {fileID: 1000010421084438}
  m_LocalRotation: {x: -0, y: 0.0035040795, z: -0, w: 0.99999386}
  m_LocalPosition: {x: 0.154, y: 0.8429999, z: -0.008999974}
  m_LocalScale: {x: 1.0000213, y: 1, z: 1.0000211}
  m_Children:
  - {fileID: 4000011344801272}
  - {fileID: 4000012733197912}
  - {fileID: 4416633949928884}
  - {fileID: 4769101436843838}
  - {fileID: 4246335845377712}
  m_Father: {fileID: 0}
  m_RootOrder: 0
  m_LocalEulerAnglesHint: {x: 0, y: 90, z: 0}
--- !u!4 &4000011344801272
Transform:
  m_ObjectHideFlags: 1
  m_CorrespondingSourceObject: {fileID: 0}
  m_PrefabInternal: {fileID: 100100000}
  m_GameObject: {fileID: 1000012664416582}
  m_LocalRotation: {x: 0.000000039733163, y: -0, z: -0.0000001490116, w: 1}
  m_LocalPosition: {x: 0, y: 0.028400004, z: 0.08150169}
  m_LocalScale: {x: 100.00214, y: 100, z: 100.00211}
  m_Children: []
  m_Father: {fileID: 4000010824048654}
  m_RootOrder: 0
  m_LocalEulerAnglesHint: {x: 0, y: 0, z: 0}
--- !u!4 &4000012733197912
Transform:
  m_ObjectHideFlags: 1
  m_CorrespondingSourceObject: {fileID: 0}
  m_PrefabInternal: {fileID: 100100000}
  m_GameObject: {fileID: 1000012664123726}
  m_LocalRotation: {x: 0, y: 0, z: 0, w: 1}
  m_LocalPosition: {x: 0.0055, y: 0.0541, z: 0.0074}
  m_LocalScale: {x: 0.18124025, y: 6.4543676, z: 0.41898477}
  m_Children: []
  m_Father: {fileID: 4000010824048654}
  m_RootOrder: 1
  m_LocalEulerAnglesHint: {x: 0, y: 0, z: 0}
--- !u!4 &4246335845377712
Transform:
  m_ObjectHideFlags: 1
  m_CorrespondingSourceObject: {fileID: 0}
  m_PrefabInternal: {fileID: 100100000}
  m_GameObject: {fileID: 1294474247649886}
  m_LocalRotation: {x: -0.46523678, y: 0.467151, z: 0.53275037, w: 0.5305674}
  m_LocalPosition: {x: 0.041782133, y: 0.0014987588, z: -0.08627799}
  m_LocalScale: {x: 1, y: 1, z: 1}
  m_Children: []
  m_Father: {fileID: 4000010824048654}
  m_RootOrder: 4
  m_LocalEulerAnglesHint: {x: -82.493004, y: 0, z: 90.235}
--- !u!4 &4416633949928884
Transform:
  m_ObjectHideFlags: 1
  m_CorrespondingSourceObject: {fileID: 0}
  m_PrefabInternal: {fileID: 100100000}
  m_GameObject: {fileID: 1870072406611714}
  m_LocalRotation: {x: 0.000000039733163, y: -0, z: -0.0000001490116, w: 1}
  m_LocalPosition: {x: 0, y: 0.028400004, z: 0.08150169}
  m_LocalScale: {x: 100.00214, y: 100, z: 100.00211}
  m_Children: []
  m_Father: {fileID: 4000010824048654}
  m_RootOrder: 2
  m_LocalEulerAnglesHint: {x: 0, y: 0, z: 0}
--- !u!4 &4769101436843838
Transform:
  m_ObjectHideFlags: 1
  m_CorrespondingSourceObject: {fileID: 0}
  m_PrefabInternal: {fileID: 100100000}
  m_GameObject: {fileID: 1872296119283094}
  m_LocalRotation: {x: 0.6433819, y: 0.32683602, z: -0.39246312, w: 0.57027256}
  m_LocalPosition: {x: 0.012910799, y: 0.00068956614, z: -0.06979563}
  m_LocalScale: {x: 1, y: 1, z: 1}
  m_Children: []
  m_Father: {fileID: 4000010824048654}
  m_RootOrder: 3
  m_LocalEulerAnglesHint: {x: 100.685, y: 17.85199, z: -42.849}
--- !u!23 &23354928532920164
MeshRenderer:
  m_ObjectHideFlags: 1
  m_CorrespondingSourceObject: {fileID: 0}
  m_PrefabInternal: {fileID: 100100000}
  m_GameObject: {fileID: 1870072406611714}
  m_Enabled: 1
  m_CastShadows: 1
  m_ReceiveShadows: 1
  m_DynamicOccludee: 1
  m_MotionVectors: 1
  m_LightProbeUsage: 1
  m_ReflectionProbeUsage: 1
  m_RenderingLayerMask: 4294967295
  m_Materials:
  - {fileID: 2100000, guid: 3aca4eaf2f5cc08449e02c7b9c3272b1, type: 2}
  m_StaticBatchInfo:
    firstSubMesh: 0
    subMeshCount: 0
  m_StaticBatchRoot: {fileID: 0}
  m_ProbeAnchor: {fileID: 0}
  m_LightProbeVolumeOverride: {fileID: 0}
  m_ScaleInLightmap: 1
  m_PreserveUVs: 0
  m_IgnoreNormalsForChartDetection: 0
  m_ImportantGI: 0
  m_StitchLightmapSeams: 0
  m_SelectedEditorRenderState: 3
  m_MinimumChartSize: 4
  m_AutoUVMaxDistance: 0.5
  m_AutoUVMaxAngle: 89
  m_LightmapParameters: {fileID: 0}
  m_SortingLayerID: 0
  m_SortingLayer: 0
  m_SortingOrder: 0
--- !u!33 &33395202494341006
MeshFilter:
  m_ObjectHideFlags: 1
  m_CorrespondingSourceObject: {fileID: 0}
  m_PrefabInternal: {fileID: 100100000}
  m_GameObject: {fileID: 1870072406611714}
  m_Mesh: {fileID: 4300004, guid: 7afe12bdb45cf8e43853abd3d982e0a2, type: 3}
--- !u!54 &54000012605867156
Rigidbody:
  m_ObjectHideFlags: 1
  m_CorrespondingSourceObject: {fileID: 0}
  m_PrefabInternal: {fileID: 100100000}
  m_GameObject: {fileID: 1000010421084438}
  serializedVersion: 2
  m_Mass: 1
  m_Drag: 0
  m_AngularDrag: 0.05
  m_UseGravity: 1
  m_IsKinematic: 1
  m_Interpolate: 1
  m_Constraints: 0
  m_CollisionDetection: 0
--- !u!65 &65000012135469974
BoxCollider:
  m_ObjectHideFlags: 1
  m_CorrespondingSourceObject: {fileID: 0}
  m_PrefabInternal: {fileID: 100100000}
  m_GameObject: {fileID: 1000012664123726}
  m_Material: {fileID: 0}
  m_IsTrigger: 1
  m_Enabled: 1
  serializedVersion: 2
  m_Size: {x: 0.08660377, y: 0.0017320755, z: 0.08660377}
  m_Center: {x: 0, y: 0, z: 0}
--- !u!65 &65000012975051628
BoxCollider:
  m_ObjectHideFlags: 1
  m_CorrespondingSourceObject: {fileID: 0}
  m_PrefabInternal: {fileID: 100100000}
  m_GameObject: {fileID: 1000010421084438}
  m_Material: {fileID: 0}
  m_IsTrigger: 0
  m_Enabled: 1
  serializedVersion: 2
  m_Size: {x: 0.02617704, y: 0.10634647, z: 0.050050132}
  m_Center: {x: 0.005434145, y: -0.004090462, z: -0.0013188943}
--- !u!65 &65841288565024350
BoxCollider:
  m_ObjectHideFlags: 1
  m_CorrespondingSourceObject: {fileID: 0}
  m_PrefabInternal: {fileID: 100100000}
  m_GameObject: {fileID: 1000012664416582}
  m_Material: {fileID: 0}
  m_IsTrigger: 1
  m_Enabled: 1
  serializedVersion: 2
  m_Size: {x: 0.00026176457, y: 0.0010634648, z: 0.00050049066}
  m_Center: {x: 0.000054340377, y: -0.00032490375, z: -0.00082818815}
--- !u!114 &114000010634924896
MonoBehaviour:
  m_ObjectHideFlags: 1
  m_CorrespondingSourceObject: {fileID: 0}
  m_PrefabInternal: {fileID: 100100000}
  m_GameObject: {fileID: 1000012664123726}
  m_Enabled: 1
  m_EditorHideFlags: 0
  m_Script: {fileID: 11500000, guid: 05859624fd3564345a4c3a6a0b70165a, type: 3}
  m_Name: 
  m_EditorClassIdentifier: 
  gunHandler: {fileID: 0}
  magazine: {fileID: 114000013729374306}
  ammoPack: {fileID: 0}
--- !u!114 &114000013729374306
MonoBehaviour:
  m_ObjectHideFlags: 1
  m_CorrespondingSourceObject: {fileID: 0}
  m_PrefabInternal: {fileID: 100100000}
  m_GameObject: {fileID: 1000012664416582}
  m_Enabled: 1
  m_EditorHideFlags: 0
  m_Script: {fileID: 11500000, guid: abad16ad2b7d55d4ab17dbeebb011a20, type: 3}
  m_Name: 
  m_EditorClassIdentifier: 
  item: {fileID: 4000010824048654}
  hovers:
  - {fileID: 23354928532920164}
  triggerColliders:
  - {fileID: 65000012975051628}
  leftHandIKAnchor: {fileID: 4769101436843838}
  rightHandIKAnchor: {fileID: 4246335845377712}
  leftHandIKPoseName: LeftHand_TorchHold1
  rightHandIkPoseName: RightHand_TorchHold1
  parents: []
  itemId: M9Mag
  canBeHeld: 1
  interactionDisabled: 0
  globalHoldType: 0
  holdType: 0
  globalUseBreakDistance: 1
  useBreakDistance: 0
  globalBreakDistance: 0
  breakDistance: 0.1
  linkedLeftAndRightHeldPositions: 1
  heldPosition: {x: -0.012, y: 0.056, z: 0.085}
  heldRotation: {x: 0.027192013, y: 9.313297e-10, z: 3.7835107e-10, w: 0.9996302}
  heldPositionRightHand: {x: 0, y: 0, z: 0}
  heldRotationRightHand: {x: 0, y: 0, z: 0, w: 1}
  globalThrowBoost: 1
  throwBoost: 1
  globalFollowForce: 1
  followForce: 1
  globalInteractionDistance: 0
  interactionDistance: 0.2
  globalLimitAcceptedAction: 0
  limitAcceptedAction: 0
  globalAcceptedActions: 0
  acceptedActionsFoldout: 0
  acceptedActions: []
  hoverModes: 00000000
  defaultShaders:
  - {fileID: 0}
  hoverShaders:
  - {fileID: 0}
  defaultMats:
  - {fileID: 0}
  hoverMats:
  - {fileID: 0}
  globalToggleToPickup: 1
  toggleToPickup: 0
  pickupEvent:
    m_PersistentCalls:
      m_Calls: []
    m_TypeName: UnityEngine.Events.UnityEvent, UnityEngine.CoreModule, Version=0.0.0.0,
      Culture=neutral, PublicKeyToken=null
  dropEvent:
    m_PersistentCalls:
      m_Calls: []
    m_TypeName: UnityEngine.Events.UnityEvent, UnityEngine.CoreModule, Version=0.0.0.0,
      Culture=neutral, PublicKeyToken=null
  enableHoverEvent:
    m_PersistentCalls:
      m_Calls: []
    m_TypeName: UnityEngine.Events.UnityEvent, UnityEngine.CoreModule, Version=0.0.0.0,
      Culture=neutral, PublicKeyToken=null
  disableHoverEvent:
    m_PersistentCalls:
      m_Calls: []
    m_TypeName: UnityEngine.Events.UnityEvent, UnityEngine.CoreModule, Version=0.0.0.0,
      Culture=neutral, PublicKeyToken=null
  audioSource: {fileID: 0}
  enterHover: {fileID: 0}
  exitHover: {fileID: 0}
  pickupSound: {fileID: 0}
  dropSound: {fileID: 0}
  forceGrabSound: {fileID: 0}
  hoverFoldout: 0
  triggersFoldout: 0
  soundsFoldout: 0
  ikFoldout: 1
  attachmentRefs:
  - localPosition: {x: -0, y: -0.028, z: -0.0844}
    localRotation: {x: 0, y: 0, z: 0, w: 1}
    entryPosition: {x: -0, y: -0.1397, z: -0.108}
    gunHandlerAttachmentId: 63
    receiverAttachmentId: 0
    weaponPrefab: {fileID: 0}
    useNewShootDirection: 0
    newShootOrigin: {x: 0, y: 0, z: 0}
    newShootDirection: {x: 0, y: 0, z: 0}
    newShotMode: 0
    newBulletsPerShot: 6
    newConeSize: 2.5
    newFireSound: {fileID: 0}
    newDryFireSound: {fileID: 0}
    useLaserSight: 0
    laserPointOrigin: {x: 0, y: 0, z: 0}
  - localPosition: {x: -0.0027, y: -0.0276, z: -0.0785}
    localRotation: {x: 0, y: 0, z: 0, w: 1}
    entryPosition: {x: -0.0027, y: -0.1337, z: -0.0956}
    gunHandlerAttachmentId: 0
    receiverAttachmentId: 0
    weaponPrefab: {fileID: 0}
    useNewShootDirection: 0
    newShootOrigin: {x: 0, y: 0, z: 0}
    newShootDirection: {x: 0, y: 0, z: 0}
    newShotMode: 0
    newBulletsPerShot: 6
    newConeSize: 2.5
    newFireSound: {fileID: 0}
    newDryFireSound: {fileID: 0}
    useLaserSight: 0
    laserPointOrigin: {x: 0, y: 0, z: 0}
  slideAttachment: 1
  autoLoad: 0
  autoLoadSpeed: 0.01
  showHighlight: 0
  attachEvent:
    m_PersistentCalls:
      m_Calls: []
    m_TypeName: UnityEngine.Events.UnityEvent, UnityEngine.CoreModule, Version=0.0.0.0,
      Culture=neutral, PublicKeyToken=null
  detatchEvent:
    m_PersistentCalls:
      m_Calls: []
    m_TypeName: UnityEngine.Events.UnityEvent, UnityEngine.CoreModule, Version=0.0.0.0,
      Culture=neutral, PublicKeyToken=null
  attachSound: {fileID: 8300000, guid: 1089fffcb67365f48922a9ff5ce775e8, type: 3}
  detatchSound: {fileID: 8300000, guid: a76c94a6194667248bad21695e8419db, type: 3}
  highlightMaterial: {fileID: 2100000, guid: cb20a72ea7a76da469adf1c376d98b15, type: 2}
  readyToAttachMaterial: {fileID: 2100000, guid: 6d7ca9b307519884ebb1d688aa68bda7,
    type: 2}
  currentReceiver: {fileID: 0}
  infiniteAmmo: 0
  clipSize: 16
  bulletId: 1
  addBulletOnLoad: 0
  replaceBulletsWithSpentCasings: 0
  startFull: 1
  bulletReceiver: {fileID: 65000012135469974}
  bulletPrefab: {fileID: 1000014027166902, guid: 05543f7f092148e48be6087756c7ed95,
    type: 2}
  bulletParent: {fileID: 0}
  bulletVisible: 01000000000000000000000000000000
  bulletPositions:
  - {x: 0.0052999975, y: 0.04979998, z: 0.008199914}
  - {x: 0, y: 0, z: 0}
  - {x: 0, y: 0, z: 0}
  - {x: 0, y: 0, z: 0}
  - {x: 0, y: 0, z: 0}
  - {x: 0, y: 0, z: 0}
  - {x: 0, y: 0, z: 0}
  - {x: 0, y: 0, z: 0}
  - {x: 0, y: 0, z: 0}
  - {x: 0, y: 0, z: 0}
  - {x: 0, y: 0, z: 0}
  - {x: 0, y: 0, z: 0}
  - {x: 0, y: 0, z: 0}
  - {x: 0, y: 0, z: 0}
  - {x: 0, y: 0, z: 0}
  - {x: 0, y: 0, z: 0}
  bulletRotations:
  - {x: 0, y: 0, z: 0, w: 1}
  - {x: 0, y: 0, z: 0, w: 0}
  - {x: 0, y: 0, z: 0, w: 0}
  - {x: 0, y: 0, z: 0, w: 0}
  - {x: 0, y: 0, z: 0, w: 0}
  - {x: 0, y: 0, z: 0, w: 0}
  - {x: 0, y: 0, z: 0, w: 0}
  - {x: 0, y: 0, z: 0, w: 0}
  - {x: 0, y: 0, z: 0, w: 0}
  - {x: 0, y: 0, z: 0, w: 0}
  - {x: 0, y: 0, z: 0, w: 0}
  - {x: 0, y: 0, z: 0, w: 0}
  - {x: 0, y: 0, z: 0, w: 0}
  - {x: 0, y: 0, z: 0, w: 0}
  - {x: 0, y: 0, z: 0, w: 0}
  - {x: 0, y: 0, z: 0, w: 0}
  bulletEjectionPositions:
  - {x: 0, y: 0, z: 0}
  - {x: 0, y: 0, z: 0}
  - {x: 0, y: 0, z: 0}
  - {x: 0, y: 0, z: 0}
  - {x: 0, y: 0, z: 0}
  - {x: 0, y: 0, z: 0}
  - {x: 0, y: 0, z: 0}
  - {x: 0, y: 0, z: 0}
  - {x: 0, y: 0, z: 0}
  - {x: 0, y: 0, z: 0}
  - {x: 0, y: 0, z: 0}
  - {x: 0, y: 0, z: 0}
  - {x: 0, y: 0, z: 0}
  - {x: 0, y: 0, z: 0}
  - {x: 0, y: 0, z: 0}
  - {x: 0, y: 0, z: 0}
  loadBulletSound: {fileID: 8300000, guid: 3ec02e3dd24b2a744969a6acbf7eb84f, type: 3}
--- !u!114 &114012579914097520
MonoBehaviour:
  m_ObjectHideFlags: 1
  m_CorrespondingSourceObject: {fileID: 0}
  m_PrefabInternal: {fileID: 100100000}
  m_GameObject: {fileID: 1000010421084438}
  m_Enabled: 1
  m_EditorHideFlags: 0
  m_Script: {fileID: 11500000, guid: cb3807654d24c1f44bc24787b648936d, type: 3}
  m_Name: 
  m_EditorClassIdentifier: 
  item: {fileID: 114000013729374306}
