%YAML 1.1
%TAG !u! tag:unity3d.com,2011:
--- !u!114 &11400000
MonoBehaviour:
  m_ObjectHideFlags: 0
  m_CorrespondingSourceObject: {fileID: 0}
  m_PrefabInstance: {fileID: 0}
  m_PrefabAsset: {fileID: 0}
  m_GameObject: {fileID: 0}
  m_Enabled: 1
  m_EditorHideFlags: 0
  m_Script: {fileID: 11500000, guid: bdad7386d1eeedc4cb4d9f8a6267c608, type: 3}
  m_Name: JY_TestCube
  m_EditorClassIdentifier: 
  displayPrefab: {fileID: 8920983290058537955, guid: 9889b611f2eb0cb4897910832e7a37d2, type: 3}
  gamePrefab: {fileID: 8920983290058537955, guid: c0d9138862c5e9c47807b0e4227fabe1, type: 3}
