%YAML 1.1
%TAG !u! tag:unity3d.com,2011:
--- !u!65 &-5420829098288524187
BoxCollider:
  m_ObjectHideFlags: 0
  m_CorrespondingSourceObject: {fileID: 0}
  m_PrefabInstance: {fileID: 0}
  m_PrefabAsset: {fileID: 0}
  m_GameObject: {fileID: 2769735695942634931}
  m_Material: {fileID: 0}
  m_IsTrigger: 1
  m_Enabled: 1
  serializedVersion: 2
  m_Size: {x: 0.06083107, y: 0.14766979, z: 0.21886396}
  m_Center: {x: -0.0076978207, y: -0.017992973, z: 0.011646986}
--- !u!23 &2897612070548039130
MeshRenderer:
  m_ObjectHideFlags: 0
  m_CorrespondingSourceObject: {fileID: 0}
  m_PrefabInstance: {fileID: 0}
  m_PrefabAsset: {fileID: 0}
  m_GameObject: {fileID: 2769735695942634931}
  m_Enabled: 1
  m_CastShadows: 0
  m_ReceiveShadows: 1
  m_DynamicOccludee: 1
  m_MotionVectors: 1
  m_LightProbeUsage: 1
  m_ReflectionProbeUsage: 1
  m_RayTracingMode: 2
  m_RayTraceProcedural: 0
  m_RenderingLayerMask: 1
  m_RendererPriority: 0
  m_Materials:
  - {fileID: 2100000, guid: 0eaf56d042d189a46a4569df27725043, type: 2}
  - {fileID: 2100000, guid: fc69318049f082042bb7eb4cecce83e9, type: 2}
  - {fileID: 2100000, guid: f4d1c14f9d7087643856f2c5965d05f7, type: 2}
  - {fileID: 2100000, guid: 5630dc096eda4ef40a62570257f9bb7d, type: 2}
  - {fileID: 2100000, guid: f1b421362f6dab94ead65ca98c6043fd, type: 2}
  m_StaticBatchInfo:
    firstSubMesh: 0
    subMeshCount: 0
  m_StaticBatchRoot: {fileID: 0}
  m_ProbeAnchor: {fileID: 0}
  m_LightProbeVolumeOverride: {fileID: 0}
  m_ScaleInLightmap: 1
  m_ReceiveGI: 1
  m_PreserveUVs: 0
  m_IgnoreNormalsForChartDetection: 0
  m_ImportantGI: 0
  m_StitchLightmapSeams: 1
  m_SelectedEditorRenderState: 3
  m_MinimumChartSize: 4
  m_AutoUVMaxDistance: 0.5
  m_AutoUVMaxAngle: 89
  m_LightmapParameters: {fileID: 0}
  m_SortingLayerID: 0
  m_SortingLayer: 0
  m_SortingOrder: 0
  m_AdditionalVertexStreams: {fileID: 0}
--- !u!114 &5961913667076360864
MonoBehaviour:
  m_ObjectHideFlags: 0
  m_CorrespondingSourceObject: {fileID: 0}
  m_PrefabInstance: {fileID: 0}
  m_PrefabAsset: {fileID: 0}
  m_GameObject: {fileID: 2769735695942634931}
  m_Enabled: 1
  m_EditorHideFlags: 0
  m_Script: {fileID: 11500000, guid: 24fb3eb29eeebd04d87475bbfb984a31, type: 3}
  m_Name: 
  m_EditorClassIdentifier: 
  createMultiMaterialMesh: 1
  combineInactiveChildren: 0
  deactivateCombinedChildren: 0
  deactivateCombinedChildrenMeshRenderers: 0
  generateUVMap: 0
  destroyCombinedChildren: 0
  folderPath: Prefabs/CombinedMeshes
  meshFiltersToSkip: []
--- !u!114 &8867956901960137435
MonoBehaviour:
  m_ObjectHideFlags: 0
  m_CorrespondingSourceObject: {fileID: 0}
  m_PrefabInstance: {fileID: 0}
  m_PrefabAsset: {fileID: 0}
  m_GameObject: {fileID: 2769735695942634931}
  m_Enabled: 1
  m_EditorHideFlags: 0
  m_Script: {fileID: 11500000, guid: 75874b00f4f7be74387554ccbfb9d4c4, type: 3}
  m_Name: 
  m_EditorClassIdentifier: 
  hoverDist: 0.05
  rotSpeed: 35
--- !u!1001 &8496720343955023463
PrefabInstance:
  m_ObjectHideFlags: 0
  serializedVersion: 2
  m_Modification:
    m_TransformParent: {fileID: 0}
    m_Modifications:
    - target: {fileID: 487094148783905881, guid: 6e987ed47215b3a46af930a293e59f19, type: 3}
      propertyPath: m_Layer
      value: 13
      objectReference: {fileID: 0}
    - target: {fileID: 487094148980926586, guid: 6e987ed47215b3a46af930a293e59f19, type: 3}
      propertyPath: m_Layer
      value: 13
      objectReference: {fileID: 0}
    - target: {fileID: 487094149627341945, guid: 6e987ed47215b3a46af930a293e59f19, type: 3}
      propertyPath: m_Layer
      value: 13
      objectReference: {fileID: 0}
    - target: {fileID: 487094149735756925, guid: 6e987ed47215b3a46af930a293e59f19, type: 3}
      propertyPath: m_Layer
      value: 13
      objectReference: {fileID: 0}
    - target: {fileID: 515159313256515068, guid: 6e987ed47215b3a46af930a293e59f19, type: 3}
      propertyPath: m_Layer
      value: 13
      objectReference: {fileID: 0}
    - target: {fileID: 515159313256515068, guid: 6e987ed47215b3a46af930a293e59f19, type: 3}
      propertyPath: m_IsActive
      value: 0
      objectReference: {fileID: 0}
    - target: {fileID: 856848243753116682, guid: 6e987ed47215b3a46af930a293e59f19, type: 3}
      propertyPath: m_Layer
      value: 13
      objectReference: {fileID: 0}
    - target: {fileID: 1026574700454754471, guid: 6e987ed47215b3a46af930a293e59f19, type: 3}
      propertyPath: m_Layer
      value: 13
      objectReference: {fileID: 0}
    - target: {fileID: 1438420122596194833, guid: 6e987ed47215b3a46af930a293e59f19, type: 3}
      propertyPath: m_Layer
      value: 13
      objectReference: {fileID: 0}
    - target: {fileID: 1486947838957797384, guid: 6e987ed47215b3a46af930a293e59f19, type: 3}
      propertyPath: m_Layer
      value: 13
      objectReference: {fileID: 0}
    - target: {fileID: 1602420621178634492, guid: 6e987ed47215b3a46af930a293e59f19, type: 3}
      propertyPath: m_Layer
      value: 13
      objectReference: {fileID: 0}
    - target: {fileID: 2099923551052349037, guid: 6e987ed47215b3a46af930a293e59f19, type: 3}
      propertyPath: m_Layer
      value: 13
      objectReference: {fileID: 0}
    - target: {fileID: 2099923551052349037, guid: 6e987ed47215b3a46af930a293e59f19, type: 3}
      propertyPath: m_IsActive
      value: 1
      objectReference: {fileID: 0}
    - target: {fileID: 2537303152881527521, guid: 6e987ed47215b3a46af930a293e59f19, type: 3}
      propertyPath: m_Layer
      value: 13
      objectReference: {fileID: 0}
    - target: {fileID: 2906948018019008426, guid: 6e987ed47215b3a46af930a293e59f19, type: 3}
      propertyPath: m_Layer
      value: 13
      objectReference: {fileID: 0}
    - target: {fileID: 2906948018222818436, guid: 6e987ed47215b3a46af930a293e59f19, type: 3}
      propertyPath: m_Layer
      value: 13
      objectReference: {fileID: 0}
    - target: {fileID: 2906948018756047021, guid: 6e987ed47215b3a46af930a293e59f19, type: 3}
      propertyPath: m_Layer
      value: 13
      objectReference: {fileID: 0}
    - target: {fileID: 3174866719809952747, guid: 6e987ed47215b3a46af930a293e59f19, type: 3}
      propertyPath: m_Layer
      value: 13
      objectReference: {fileID: 0}
    - target: {fileID: 3319413209130940236, guid: 6e987ed47215b3a46af930a293e59f19, type: 3}
      propertyPath: m_ConnectedBody
      value: 
      objectReference: {fileID: 0}
    - target: {fileID: 3319413209130940241, guid: 6e987ed47215b3a46af930a293e59f19, type: 3}
      propertyPath: OtherGrabbableMustBeGrabbed
      value: 
      objectReference: {fileID: 0}
    - target: {fileID: 3319413209742847630, guid: 6e987ed47215b3a46af930a293e59f19, type: 3}
      propertyPath: m_Layer
      value: 13
      objectReference: {fileID: 0}
    - target: {fileID: 3319413210055439036, guid: 6e987ed47215b3a46af930a293e59f19, type: 3}
      propertyPath: AttachedWeapon
      value: 
      objectReference: {fileID: 0}
    - target: {fileID: 3319413210055439038, guid: 6e987ed47215b3a46af930a293e59f19, type: 3}
      propertyPath: m_Layer
      value: 13
      objectReference: {fileID: 0}
    - target: {fileID: 3319413210243796770, guid: 6e987ed47215b3a46af930a293e59f19, type: 3}
      propertyPath: m_Layer
      value: 13
      objectReference: {fileID: 0}
    - target: {fileID: 3349881550477857866, guid: 6e987ed47215b3a46af930a293e59f19, type: 3}
      propertyPath: m_Layer
      value: 13
      objectReference: {fileID: 0}
    - target: {fileID: 3685870581452790510, guid: 6e987ed47215b3a46af930a293e59f19, type: 3}
      propertyPath: m_Layer
      value: 13
      objectReference: {fileID: 0}
    - target: {fileID: 3839273607276785815, guid: 6e987ed47215b3a46af930a293e59f19, type: 3}
      propertyPath: m_Layer
      value: 13
      objectReference: {fileID: 0}
    - target: {fileID: 3859406978687323892, guid: 6e987ed47215b3a46af930a293e59f19, type: 3}
      propertyPath: m_Layer
      value: 13
      objectReference: {fileID: 0}
    - target: {fileID: 4567605641618450651, guid: 6e987ed47215b3a46af930a293e59f19, type: 3}
      propertyPath: ReloadMethod
      value: 0
      objectReference: {fileID: 0}
    - target: {fileID: 4567605641618450651, guid: 6e987ed47215b3a46af930a293e59f19, type: 3}
      propertyPath: MustChamberRounds
      value: 0
      objectReference: {fileID: 0}
    - target: {fileID: 5013440626882651739, guid: 6e987ed47215b3a46af930a293e59f19, type: 3}
      propertyPath: m_Layer
      value: 13
      objectReference: {fileID: 0}
    - target: {fileID: 5013440626882651739, guid: 6e987ed47215b3a46af930a293e59f19, type: 3}
      propertyPath: m_IsActive
      value: 1
      objectReference: {fileID: 0}
    - target: {fileID: 5048091237468547505, guid: 6e987ed47215b3a46af930a293e59f19, type: 3}
      propertyPath: m_Layer
      value: 13
      objectReference: {fileID: 0}
    - target: {fileID: 5822810580582958911, guid: 6e987ed47215b3a46af930a293e59f19, type: 3}
      propertyPath: m_Layer
      value: 13
      objectReference: {fileID: 0}
    - target: {fileID: 5922710777915234667, guid: 6e987ed47215b3a46af930a293e59f19, type: 3}
      propertyPath: m_Layer
      value: 13
      objectReference: {fileID: 0}
    - target: {fileID: 5922710777915234667, guid: 6e987ed47215b3a46af930a293e59f19, type: 3}
      propertyPath: m_IsActive
      value: 0
      objectReference: {fileID: 0}
    - target: {fileID: 6024261394667366985, guid: 6e987ed47215b3a46af930a293e59f19, type: 3}
      propertyPath: m_Layer
      value: 13
      objectReference: {fileID: 0}
    - target: {fileID: 6024261394720629045, guid: 6e987ed47215b3a46af930a293e59f19, type: 3}
      propertyPath: m_Layer
      value: 13
      objectReference: {fileID: 0}
    - target: {fileID: 6024261394743409022, guid: 6e987ed47215b3a46af930a293e59f19, type: 3}
      propertyPath: m_Layer
      value: 13
      objectReference: {fileID: 0}
    - target: {fileID: 6024261394930030412, guid: 6e987ed47215b3a46af930a293e59f19, type: 3}
      propertyPath: m_Layer
      value: 13
      objectReference: {fileID: 0}
    - target: {fileID: 6024261395667915519, guid: 6e987ed47215b3a46af930a293e59f19, type: 3}
      propertyPath: m_Layer
      value: 13
      objectReference: {fileID: 0}
    - target: {fileID: 6024261395673827099, guid: 6e987ed47215b3a46af930a293e59f19, type: 3}
      propertyPath: m_Layer
      value: 13
      objectReference: {fileID: 0}
    - target: {fileID: 6024261395714254635, guid: 6e987ed47215b3a46af930a293e59f19, type: 3}
      propertyPath: m_Layer
      value: 13
      objectReference: {fileID: 0}
    - target: {fileID: 6024261396202145669, guid: 6e987ed47215b3a46af930a293e59f19, type: 3}
      propertyPath: m_Layer
      value: 13
      objectReference: {fileID: 0}
    - target: {fileID: 6024261396410624979, guid: 6e987ed47215b3a46af930a293e59f19, type: 3}
      propertyPath: m_RootOrder
      value: 0
      objectReference: {fileID: 0}
    - target: {fileID: 6024261396410624979, guid: 6e987ed47215b3a46af930a293e59f19, type: 3}
      propertyPath: m_LocalScale.x
      value: 3.3300116
      objectReference: {fileID: 0}
    - target: {fileID: 6024261396410624979, guid: 6e987ed47215b3a46af930a293e59f19, type: 3}
      propertyPath: m_LocalScale.y
      value: 3.3300116
      objectReference: {fileID: 0}
    - target: {fileID: 6024261396410624979, guid: 6e987ed47215b3a46af930a293e59f19, type: 3}
      propertyPath: m_LocalScale.z
      value: 3.3300116
      objectReference: {fileID: 0}
    - target: {fileID: 6024261396410624979, guid: 6e987ed47215b3a46af930a293e59f19, type: 3}
      propertyPath: m_LocalPosition.x
      value: -0.011352
      objectReference: {fileID: 0}
    - target: {fileID: 6024261396410624979, guid: 6e987ed47215b3a46af930a293e59f19, type: 3}
      propertyPath: m_LocalPosition.y
      value: 0.12113
      objectReference: {fileID: 0}
    - target: {fileID: 6024261396410624979, guid: 6e987ed47215b3a46af930a293e59f19, type: 3}
      propertyPath: m_LocalPosition.z
      value: -0.018525
      objectReference: {fileID: 0}
    - target: {fileID: 6024261396410624979, guid: 6e987ed47215b3a46af930a293e59f19, type: 3}
      propertyPath: m_LocalRotation.w
      value: 0.72206223
      objectReference: {fileID: 0}
    - target: {fileID: 6024261396410624979, guid: 6e987ed47215b3a46af930a293e59f19, type: 3}
      propertyPath: m_LocalRotation.x
      value: 0
      objectReference: {fileID: 0}
    - target: {fileID: 6024261396410624979, guid: 6e987ed47215b3a46af930a293e59f19, type: 3}
      propertyPath: m_LocalRotation.y
      value: -0.6918282
      objectReference: {fileID: 0}
    - target: {fileID: 6024261396410624979, guid: 6e987ed47215b3a46af930a293e59f19, type: 3}
      propertyPath: m_LocalRotation.z
      value: 0
      objectReference: {fileID: 0}
    - target: {fileID: 6024261396410624979, guid: 6e987ed47215b3a46af930a293e59f19, type: 3}
      propertyPath: m_LocalEulerAnglesHint.x
      value: 0
      objectReference: {fileID: 0}
    - target: {fileID: 6024261396410624979, guid: 6e987ed47215b3a46af930a293e59f19, type: 3}
      propertyPath: m_LocalEulerAnglesHint.y
      value: -87.55
      objectReference: {fileID: 0}
    - target: {fileID: 6024261396410624979, guid: 6e987ed47215b3a46af930a293e59f19, type: 3}
      propertyPath: m_LocalEulerAnglesHint.z
      value: 0
      objectReference: {fileID: 0}
    - target: {fileID: 6024261396410624980, guid: 6e987ed47215b3a46af930a293e59f19, type: 3}
      propertyPath: m_Name
      value: PistolInfinite_Dis
      objectReference: {fileID: 0}
    - target: {fileID: 6024261396410624980, guid: 6e987ed47215b3a46af930a293e59f19, type: 3}
      propertyPath: m_Layer
      value: 13
      objectReference: {fileID: 0}
    - target: {fileID: 6024261396410624980, guid: 6e987ed47215b3a46af930a293e59f19, type: 3}
      propertyPath: m_IsActive
      value: 1
      objectReference: {fileID: 0}
    - target: {fileID: 6024261396410624980, guid: 6e987ed47215b3a46af930a293e59f19, type: 3}
      propertyPath: m_TagString
      value: DisplayPrefab
      objectReference: {fileID: 0}
    - target: {fileID: 6024261396410624987, guid: 6e987ed47215b3a46af930a293e59f19, type: 3}
      propertyPath: m_Mesh
      value: 
      objectReference: {fileID: 0}
    - target: {fileID: 6024261396410624988, guid: 6e987ed47215b3a46af930a293e59f19, type: 3}
      propertyPath: m_IsTrigger
      value: 1
      objectReference: {fileID: 0}
    - target: {fileID: 6534105839233010634, guid: 6e987ed47215b3a46af930a293e59f19, type: 3}
      propertyPath: m_Layer
      value: 13
      objectReference: {fileID: 0}
    - target: {fileID: 6638139941897956705, guid: 6e987ed47215b3a46af930a293e59f19, type: 3}
      propertyPath: m_Layer
      value: 13
      objectReference: {fileID: 0}
    - target: {fileID: 6638139941897956705, guid: 6e987ed47215b3a46af930a293e59f19, type: 3}
      propertyPath: m_IsActive
      value: 0
      objectReference: {fileID: 0}
    - target: {fileID: 6826571576441256427, guid: 6e987ed47215b3a46af930a293e59f19, type: 3}
      propertyPath: m_Layer
      value: 13
      objectReference: {fileID: 0}
    - target: {fileID: 6826571576843839296, guid: 6e987ed47215b3a46af930a293e59f19, type: 3}
      propertyPath: m_Layer
      value: 13
      objectReference: {fileID: 0}
    - target: {fileID: 6826571577055362241, guid: 6e987ed47215b3a46af930a293e59f19, type: 3}
      propertyPath: m_Layer
      value: 13
      objectReference: {fileID: 0}
    - target: {fileID: 6826571578011165833, guid: 6e987ed47215b3a46af930a293e59f19, type: 3}
      propertyPath: m_Layer
      value: 13
      objectReference: {fileID: 0}
    - target: {fileID: 6978229133025963852, guid: 6e987ed47215b3a46af930a293e59f19, type: 3}
      propertyPath: m_Layer
      value: 13
      objectReference: {fileID: 0}
    - target: {fileID: 6978229133330285039, guid: 6e987ed47215b3a46af930a293e59f19, type: 3}
      propertyPath: m_Layer
      value: 13
      objectReference: {fileID: 0}
    - target: {fileID: 7087319964306140159, guid: 6e987ed47215b3a46af930a293e59f19, type: 3}
      propertyPath: m_LocalScale.x
      value: 3
      objectReference: {fileID: 0}
    - target: {fileID: 7390625811927104297, guid: 6e987ed47215b3a46af930a293e59f19, type: 3}
      propertyPath: m_Layer
      value: 13
      objectReference: {fileID: 0}
    - target: {fileID: 7390625811933537069, guid: 6e987ed47215b3a46af930a293e59f19, type: 3}
      propertyPath: m_Layer
      value: 13
      objectReference: {fileID: 0}
    - target: {fileID: 7441153169546584006, guid: 6e987ed47215b3a46af930a293e59f19, type: 3}
      propertyPath: m_Layer
      value: 13
      objectReference: {fileID: 0}
    - target: {fileID: 8835154973135514447, guid: 6e987ed47215b3a46af930a293e59f19, type: 3}
      propertyPath: m_LocalScale.x
      value: 3
      objectReference: {fileID: 0}
    - target: {fileID: 8885127584237888815, guid: 6e987ed47215b3a46af930a293e59f19, type: 3}
      propertyPath: m_Layer
      value: 13
      objectReference: {fileID: 0}
    m_RemovedComponents:
    - {fileID: 6024261396410624989, guid: 6e987ed47215b3a46af930a293e59f19, type: 3}
    - {fileID: 4567605641618450651, guid: 6e987ed47215b3a46af930a293e59f19, type: 3}
    - {fileID: 6024261396410624977, guid: 6e987ed47215b3a46af930a293e59f19, type: 3}
    - {fileID: 6024261396410624978, guid: 6e987ed47215b3a46af930a293e59f19, type: 3}
    - {fileID: 6024261396410624988, guid: 6e987ed47215b3a46af930a293e59f19, type: 3}
    - {fileID: 7922118788426277100, guid: 6e987ed47215b3a46af930a293e59f19, type: 3}
    - {fileID: 2115903494399835030, guid: 6e987ed47215b3a46af930a293e59f19, type: 3}
    - {fileID: 5716214762585700687, guid: 6e987ed47215b3a46af930a293e59f19, type: 3}
    - {fileID: 260408577, guid: 6e987ed47215b3a46af930a293e59f19, type: 3}
    - {fileID: 260408578, guid: 6e987ed47215b3a46af930a293e59f19, type: 3}
    - {fileID: 260408579, guid: 6e987ed47215b3a46af930a293e59f19, type: 3}
    - {fileID: 6024261396410624991, guid: 6e987ed47215b3a46af930a293e59f19, type: 3}
    - {fileID: 6024261396410624990, guid: 6e987ed47215b3a46af930a293e59f19, type: 3}
  m_SourcePrefab: {fileID: 100100000, guid: 6e987ed47215b3a46af930a293e59f19, type: 3}
--- !u!1 &2769735695942634931 stripped
GameObject:
  m_CorrespondingSourceObject: {fileID: 6024261396410624980, guid: 6e987ed47215b3a46af930a293e59f19, type: 3}
  m_PrefabInstance: {fileID: 8496720343955023463}
  m_PrefabAsset: {fileID: 0}
