%YAML 1.1
%TAG !u! tag:unity3d.com,2011:
--- !u!65 &6802545921818008865
BoxCollider:
  m_ObjectHideFlags: 0
  m_CorrespondingSourceObject: {fileID: 0}
  m_PrefabInstance: {fileID: 0}
  m_PrefabAsset: {fileID: 0}
  m_GameObject: {fileID: 8531787369241710909}
  m_Material: {fileID: 0}
  m_IsTrigger: 1
  m_Enabled: 1
  serializedVersion: 2
  m_Size: {x: 1.8195224, y: 1.2421676, z: 4.815524}
  m_Center: {x: -0.004374981, y: 0.038105287, z: -0.088442564}
--- !u!33 &6929960207463112039
MeshFilter:
  m_ObjectHideFlags: 0
  m_CorrespondingSourceObject: {fileID: 0}
  m_PrefabInstance: {fileID: 0}
  m_PrefabAsset: {fileID: 0}
  m_GameObject: {fileID: 8531787369241710909}
  m_Mesh: {fileID: 0}
--- !u!23 &8447075444195913359
MeshRenderer:
  m_ObjectHideFlags: 0
  m_CorrespondingSourceObject: {fileID: 0}
  m_PrefabInstance: {fileID: 0}
  m_PrefabAsset: {fileID: 0}
  m_GameObject: {fileID: 8531787369241710909}
  m_Enabled: 0
  m_CastShadows: 0
  m_ReceiveShadows: 1
  m_DynamicOccludee: 1
  m_MotionVectors: 1
  m_LightProbeUsage: 1
  m_ReflectionProbeUsage: 1
  m_RayTracingMode: 2
  m_RayTraceProcedural: 0
  m_RenderingLayerMask: 1
  m_RendererPriority: 0
  m_Materials:
  - {fileID: 0}
  m_StaticBatchInfo:
    firstSubMesh: 0
    subMeshCount: 0
  m_StaticBatchRoot: {fileID: 0}
  m_ProbeAnchor: {fileID: 0}
  m_LightProbeVolumeOverride: {fileID: 0}
  m_ScaleInLightmap: 1
  m_ReceiveGI: 1
  m_PreserveUVs: 0
  m_IgnoreNormalsForChartDetection: 0
  m_ImportantGI: 0
  m_StitchLightmapSeams: 1
  m_SelectedEditorRenderState: 3
  m_MinimumChartSize: 4
  m_AutoUVMaxDistance: 0.5
  m_AutoUVMaxAngle: 89
  m_LightmapParameters: {fileID: 0}
  m_SortingLayerID: 0
  m_SortingLayer: 0
  m_SortingOrder: 0
  m_AdditionalVertexStreams: {fileID: 0}
--- !u!114 &3117921738557218855
MonoBehaviour:
  m_ObjectHideFlags: 0
  m_CorrespondingSourceObject: {fileID: 0}
  m_PrefabInstance: {fileID: 0}
  m_PrefabAsset: {fileID: 0}
  m_GameObject: {fileID: 8531787369241710909}
  m_Enabled: 1
  m_EditorHideFlags: 0
  m_Script: {fileID: 11500000, guid: 24fb3eb29eeebd04d87475bbfb984a31, type: 3}
  m_Name: 
  m_EditorClassIdentifier: 
  createMultiMaterialMesh: 0
  combineInactiveChildren: 0
  deactivateCombinedChildren: 1
  deactivateCombinedChildrenMeshRenderers: 0
  generateUVMap: 0
  destroyCombinedChildren: 0
  folderPath: Prefabs/CombinedMeshes
  meshFiltersToSkip: []
--- !u!114 &6005691549861779278
MonoBehaviour:
  m_ObjectHideFlags: 0
  m_CorrespondingSourceObject: {fileID: 0}
  m_PrefabInstance: {fileID: 0}
  m_PrefabAsset: {fileID: 0}
  m_GameObject: {fileID: 8531787369241710909}
  m_Enabled: 1
  m_EditorHideFlags: 0
  m_Script: {fileID: 11500000, guid: 75874b00f4f7be74387554ccbfb9d4c4, type: 3}
  m_Name: 
  m_EditorClassIdentifier: 
  hoverDist: 0.05
  rotSpeed: 35
--- !u!1001 &380293029616830516
PrefabInstance:
  m_ObjectHideFlags: 0
  serializedVersion: 2
  m_Modification:
    m_TransformParent: {fileID: 0}
    m_Modifications:
    - target: {fileID: -8956326864897689137, guid: 6990e150d24ced3479192332fbd062ee, type: 3}
      propertyPath: m_Layer
      value: 13
      objectReference: {fileID: 0}
    - target: {fileID: -8891637149427883623, guid: 6990e150d24ced3479192332fbd062ee, type: 3}
      propertyPath: m_Layer
      value: 13
      objectReference: {fileID: 0}
    - target: {fileID: -8563032270920557975, guid: 6990e150d24ced3479192332fbd062ee, type: 3}
      propertyPath: m_Layer
      value: 13
      objectReference: {fileID: 0}
    - target: {fileID: -8451251099246372650, guid: 6990e150d24ced3479192332fbd062ee, type: 3}
      propertyPath: m_Layer
      value: 13
      objectReference: {fileID: 0}
    - target: {fileID: -7952133056427820046, guid: 6990e150d24ced3479192332fbd062ee, type: 3}
      propertyPath: m_Layer
      value: 13
      objectReference: {fileID: 0}
    - target: {fileID: -7578538209477548050, guid: 6990e150d24ced3479192332fbd062ee, type: 3}
      propertyPath: m_Layer
      value: 13
      objectReference: {fileID: 0}
    - target: {fileID: -5086854849858492464, guid: 6990e150d24ced3479192332fbd062ee, type: 3}
      propertyPath: m_Layer
      value: 13
      objectReference: {fileID: 0}
    - target: {fileID: -4829307487416521908, guid: 6990e150d24ced3479192332fbd062ee, type: 3}
      propertyPath: m_Layer
      value: 13
      objectReference: {fileID: 0}
    - target: {fileID: -4218054900723226005, guid: 6990e150d24ced3479192332fbd062ee, type: 3}
      propertyPath: m_Layer
      value: 13
      objectReference: {fileID: 0}
    - target: {fileID: -4216859302048453862, guid: 6990e150d24ced3479192332fbd062ee, type: 3}
      propertyPath: m_RootOrder
      value: 0
      objectReference: {fileID: 0}
    - target: {fileID: -4216859302048453862, guid: 6990e150d24ced3479192332fbd062ee, type: 3}
      propertyPath: m_LocalScale.x
      value: 0.23110801
      objectReference: {fileID: 0}
    - target: {fileID: -4216859302048453862, guid: 6990e150d24ced3479192332fbd062ee, type: 3}
      propertyPath: m_LocalScale.y
      value: 0.23110801
      objectReference: {fileID: 0}
    - target: {fileID: -4216859302048453862, guid: 6990e150d24ced3479192332fbd062ee, type: 3}
      propertyPath: m_LocalScale.z
      value: 0.23110801
      objectReference: {fileID: 0}
    - target: {fileID: -4216859302048453862, guid: 6990e150d24ced3479192332fbd062ee, type: 3}
      propertyPath: m_LocalPosition.x
      value: 0
      objectReference: {fileID: 0}
    - target: {fileID: -4216859302048453862, guid: 6990e150d24ced3479192332fbd062ee, type: 3}
      propertyPath: m_LocalPosition.y
      value: 0
      objectReference: {fileID: 0}
    - target: {fileID: -4216859302048453862, guid: 6990e150d24ced3479192332fbd062ee, type: 3}
      propertyPath: m_LocalPosition.z
      value: 0
      objectReference: {fileID: 0}
    - target: {fileID: -4216859302048453862, guid: 6990e150d24ced3479192332fbd062ee, type: 3}
      propertyPath: m_LocalRotation.w
      value: -0.42261827
      objectReference: {fileID: 0}
    - target: {fileID: -4216859302048453862, guid: 6990e150d24ced3479192332fbd062ee, type: 3}
      propertyPath: m_LocalRotation.x
      value: 0
      objectReference: {fileID: 0}
    - target: {fileID: -4216859302048453862, guid: 6990e150d24ced3479192332fbd062ee, type: 3}
      propertyPath: m_LocalRotation.y
      value: 0.9063079
      objectReference: {fileID: 0}
    - target: {fileID: -4216859302048453862, guid: 6990e150d24ced3479192332fbd062ee, type: 3}
      propertyPath: m_LocalRotation.z
      value: -0
      objectReference: {fileID: 0}
    - target: {fileID: -4216859302048453862, guid: 6990e150d24ced3479192332fbd062ee, type: 3}
      propertyPath: m_LocalEulerAnglesHint.x
      value: 0
      objectReference: {fileID: 0}
    - target: {fileID: -4216859302048453862, guid: 6990e150d24ced3479192332fbd062ee, type: 3}
      propertyPath: m_LocalEulerAnglesHint.y
      value: 230
      objectReference: {fileID: 0}
    - target: {fileID: -4216859302048453862, guid: 6990e150d24ced3479192332fbd062ee, type: 3}
      propertyPath: m_LocalEulerAnglesHint.z
      value: 0
      objectReference: {fileID: 0}
    - target: {fileID: -3735675209245050568, guid: 6990e150d24ced3479192332fbd062ee, type: 3}
      propertyPath: m_Layer
      value: 13
      objectReference: {fileID: 0}
    - target: {fileID: -3728858360437314574, guid: 6990e150d24ced3479192332fbd062ee, type: 3}
      propertyPath: m_Layer
      value: 13
      objectReference: {fileID: 0}
    - target: {fileID: -3689673307313575330, guid: 6990e150d24ced3479192332fbd062ee, type: 3}
      propertyPath: m_Layer
      value: 13
      objectReference: {fileID: 0}
    - target: {fileID: -2783467297925046898, guid: 6990e150d24ced3479192332fbd062ee, type: 3}
      propertyPath: m_Layer
      value: 13
      objectReference: {fileID: 0}
    - target: {fileID: -2698540315466128277, guid: 6990e150d24ced3479192332fbd062ee, type: 3}
      propertyPath: m_Layer
      value: 13
      objectReference: {fileID: 0}
    - target: {fileID: -2078850554425832490, guid: 6990e150d24ced3479192332fbd062ee, type: 3}
      propertyPath: m_Layer
      value: 13
      objectReference: {fileID: 0}
    - target: {fileID: -927199367670048503, guid: 6990e150d24ced3479192332fbd062ee, type: 3}
      propertyPath: m_Name
      value: Sedan_Dis
      objectReference: {fileID: 0}
    - target: {fileID: -927199367670048503, guid: 6990e150d24ced3479192332fbd062ee, type: 3}
      propertyPath: m_Layer
      value: 13
      objectReference: {fileID: 0}
    - target: {fileID: -927199367670048503, guid: 6990e150d24ced3479192332fbd062ee, type: 3}
      propertyPath: m_TagString
      value: DisplayPrefab
      objectReference: {fileID: 0}
    - target: {fileID: -272645532838995983, guid: 6990e150d24ced3479192332fbd062ee, type: 3}
      propertyPath: m_Layer
      value: 13
      objectReference: {fileID: 0}
    - target: {fileID: 651062535157405844, guid: 6990e150d24ced3479192332fbd062ee, type: 3}
      propertyPath: m_Layer
      value: 13
      objectReference: {fileID: 0}
    - target: {fileID: 867187950504957166, guid: 6990e150d24ced3479192332fbd062ee, type: 3}
      propertyPath: m_Layer
      value: 13
      objectReference: {fileID: 0}
    - target: {fileID: 1857745940113092986, guid: 6990e150d24ced3479192332fbd062ee, type: 3}
      propertyPath: m_Layer
      value: 13
      objectReference: {fileID: 0}
    - target: {fileID: 2806938677716984064, guid: 6990e150d24ced3479192332fbd062ee, type: 3}
      propertyPath: m_Layer
      value: 13
      objectReference: {fileID: 0}
    - target: {fileID: 2921039965655649638, guid: 6990e150d24ced3479192332fbd062ee, type: 3}
      propertyPath: m_Layer
      value: 13
      objectReference: {fileID: 0}
    - target: {fileID: 2991953326257349957, guid: 6990e150d24ced3479192332fbd062ee, type: 3}
      propertyPath: m_Layer
      value: 13
      objectReference: {fileID: 0}
    - target: {fileID: 3997211691939035857, guid: 6990e150d24ced3479192332fbd062ee, type: 3}
      propertyPath: m_Layer
      value: 13
      objectReference: {fileID: 0}
    - target: {fileID: 4204966966228102322, guid: 6990e150d24ced3479192332fbd062ee, type: 3}
      propertyPath: m_Layer
      value: 13
      objectReference: {fileID: 0}
    - target: {fileID: 4530215526102382586, guid: 6990e150d24ced3479192332fbd062ee, type: 3}
      propertyPath: m_Layer
      value: 13
      objectReference: {fileID: 0}
    - target: {fileID: 5133913965574556032, guid: 6990e150d24ced3479192332fbd062ee, type: 3}
      propertyPath: m_Layer
      value: 13
      objectReference: {fileID: 0}
    - target: {fileID: 5447549885320687260, guid: 6990e150d24ced3479192332fbd062ee, type: 3}
      propertyPath: m_Layer
      value: 13
      objectReference: {fileID: 0}
    - target: {fileID: 5661355732858787205, guid: 6990e150d24ced3479192332fbd062ee, type: 3}
      propertyPath: m_Layer
      value: 13
      objectReference: {fileID: 0}
    - target: {fileID: 6776124024731879990, guid: 6990e150d24ced3479192332fbd062ee, type: 3}
      propertyPath: m_Layer
      value: 13
      objectReference: {fileID: 0}
    - target: {fileID: 8180329242925643842, guid: 6990e150d24ced3479192332fbd062ee, type: 3}
      propertyPath: m_Layer
      value: 13
      objectReference: {fileID: 0}
    - target: {fileID: 8798661057350396706, guid: 6990e150d24ced3479192332fbd062ee, type: 3}
      propertyPath: m_Layer
      value: 13
      objectReference: {fileID: 0}
    - target: {fileID: 9034903674660227148, guid: 6990e150d24ced3479192332fbd062ee, type: 3}
      propertyPath: m_Layer
      value: 13
      objectReference: {fileID: 0}
    m_RemovedComponents:
    - {fileID: -6057140222963153312, guid: 6990e150d24ced3479192332fbd062ee, type: 3}
  m_SourcePrefab: {fileID: 100100000, guid: 6990e150d24ced3479192332fbd062ee, type: 3}
--- !u!1 &8531787369241710909 stripped
GameObject:
  m_CorrespondingSourceObject: {fileID: -927199367670048503, guid: 6990e150d24ced3479192332fbd062ee, type: 3}
  m_PrefabInstance: {fileID: 380293029616830516}
  m_PrefabAsset: {fileID: 0}
