%YAML 1.1
%TAG !u! tag:unity3d.com,2011:
--- !u!114 &11400000
MonoBehaviour:
  m_ObjectHideFlags: 0
  m_CorrespondingSourceObject: {fileID: 0}
  m_PrefabInstance: {fileID: 0}
  m_PrefabAsset: {fileID: 0}
  m_GameObject: {fileID: 0}
  m_Enabled: 1
  m_EditorHideFlags: 0
  m_Script: {fileID: 11500000, guid: bdad7386d1eeedc4cb4d9f8a6267c608, type: 3}
  m_Name: Sedan
  m_EditorClassIdentifier: 
  displayPrefab: {fileID: 8531787369241710909, guid: e42bf7df52810dc4d99294114292f964, type: 3}
  gamePrefab: {fileID: 8531787369241710909, guid: 7c2bc571613618340adc286739d85044, type: 3}
