%YAML 1.1
%TAG !u! tag:unity3d.com,2011:
--- !u!114 &2190944206220938135
MonoBehaviour:
  m_ObjectHideFlags: 0
  m_CorrespondingSourceObject: {fileID: 0}
  m_PrefabInstance: {fileID: 0}
  m_PrefabAsset: {fileID: 0}
  m_GameObject: {fileID: 6271062313269820545}
  m_Enabled: 1
  m_EditorHideFlags: 0
  m_Script: {fileID: 11500000, guid: 02b9190900680d24c8782810e5a0280e, type: 3}
  m_Name: 
  m_EditorClassIdentifier: 
  insDis: []
  depthAtItemShow: 0
  isItemShown: 0
--- !u!114 &885257458
MonoBehaviour:
  m_ObjectHideFlags: 0
  m_CorrespondingSourceObject: {fileID: 0}
  m_PrefabInstance: {fileID: 0}
  m_PrefabAsset: {fileID: 0}
  m_GameObject: {fileID: 6271140699085950803}
  m_Enabled: 1
  m_EditorHideFlags: 0
  m_Script: {fileID: 11500000, guid: 5f7201a12d95ffc409449d95f23cf332, type: 3}
  m_Name: 
  m_EditorClassIdentifier: 
  m_Material: {fileID: 0}
  m_Color: {r: 1, g: 1, b: 1, a: 1}
  m_RaycastTarget: 1
  m_RaycastPadding: {x: 0, y: 0, z: 0, w: 0}
  m_Maskable: 1
  m_OnCullStateChanged:
    m_PersistentCalls:
      m_Calls: []
  m_FontData:
    m_Font: {fileID: 12800000, guid: 8b70256c5ccc8fe4cb4f9d4026ddf6a4, type: 3}
    m_FontSize: 40
    m_FontStyle: 0
    m_BestFit: 0
    m_MinSize: 4
    m_MaxSize: 74
    m_Alignment: 4
    m_AlignByGeometry: 0
    m_RichText: 1
    m_HorizontalOverflow: 0
    m_VerticalOverflow: 0
    m_LineSpacing: 1
  m_Text: 
--- !u!114 &1569908722
MonoBehaviour:
  m_ObjectHideFlags: 0
  m_CorrespondingSourceObject: {fileID: 0}
  m_PrefabInstance: {fileID: 0}
  m_PrefabAsset: {fileID: 0}
  m_GameObject: {fileID: 887668130796944352}
  m_Enabled: 1
  m_EditorHideFlags: 0
  m_Script: {fileID: 11500000, guid: 5f7201a12d95ffc409449d95f23cf332, type: 3}
  m_Name: 
  m_EditorClassIdentifier: 
  m_Material: {fileID: 0}
  m_Color: {r: 0, g: 0, b: 0, a: 1}
  m_RaycastTarget: 1
  m_RaycastPadding: {x: 0, y: 0, z: 0, w: 0}
  m_Maskable: 1
  m_OnCullStateChanged:
    m_PersistentCalls:
      m_Calls: []
  m_FontData:
    m_Font: {fileID: 12800000, guid: 8b70256c5ccc8fe4cb4f9d4026ddf6a4, type: 3}
    m_FontSize: 40
    m_FontStyle: 0
    m_BestFit: 0
    m_MinSize: 4
    m_MaxSize: 74
    m_Alignment: 4
    m_AlignByGeometry: 0
    m_RichText: 1
    m_HorizontalOverflow: 0
    m_VerticalOverflow: 0
    m_LineSpacing: 1
  m_Text: 
--- !u!1001 &6269734019333273037
PrefabInstance:
  m_ObjectHideFlags: 0
  serializedVersion: 2
  m_Modification:
    m_TransformParent: {fileID: 0}
    m_Modifications:
    - target: {fileID: 1182376665322922, guid: 69a688479fbdc954491fe244abdaf6fd, type: 3}
      propertyPath: m_IsActive
      value: 1
      objectReference: {fileID: 0}
    - target: {fileID: 1645064954825036, guid: 69a688479fbdc954491fe244abdaf6fd, type: 3}
      propertyPath: m_Name
      value: SubTabBtn
      objectReference: {fileID: 0}
    - target: {fileID: 114057832110388272, guid: 69a688479fbdc954491fe244abdaf6fd, type: 3}
      propertyPath: m_Enabled
      value: 1
      objectReference: {fileID: 0}
    - target: {fileID: 114057832110388272, guid: 69a688479fbdc954491fe244abdaf6fd, type: 3}
      propertyPath: buttonText
      value: 
      objectReference: {fileID: 0}
    - target: {fileID: 114135021511559430, guid: 69a688479fbdc954491fe244abdaf6fd, type: 3}
      propertyPath: m_OnClick.m_PersistentCalls.m_Calls.Array.size
      value: 2
      objectReference: {fileID: 0}
    - target: {fileID: 114135021511559430, guid: 69a688479fbdc954491fe244abdaf6fd, type: 3}
      propertyPath: m_OnClick.m_PersistentCalls.m_Calls.Array.data[0].m_Mode
      value: 1
      objectReference: {fileID: 0}
    - target: {fileID: 114135021511559430, guid: 69a688479fbdc954491fe244abdaf6fd, type: 3}
      propertyPath: m_OnClick.m_PersistentCalls.m_Calls.Array.data[1].m_Mode
      value: 1
      objectReference: {fileID: 0}
    - target: {fileID: 114135021511559430, guid: 69a688479fbdc954491fe244abdaf6fd, type: 3}
      propertyPath: m_OnClick.m_PersistentCalls.m_Calls.Array.data[2].m_Mode
      value: 1
      objectReference: {fileID: 0}
    - target: {fileID: 114135021511559430, guid: 69a688479fbdc954491fe244abdaf6fd, type: 3}
      propertyPath: m_OnClick.m_PersistentCalls.m_Calls.Array.data[3].m_Mode
      value: 1
      objectReference: {fileID: 0}
    - target: {fileID: 114135021511559430, guid: 69a688479fbdc954491fe244abdaf6fd, type: 3}
      propertyPath: m_OnClick.m_PersistentCalls.m_Calls.Array.data[0].m_Target
      value: 
      objectReference: {fileID: 2190944206220938135, guid: b10fc5e0ada392d4d8b39210d02f7ef3, type: 3}
    - target: {fileID: 114135021511559430, guid: 69a688479fbdc954491fe244abdaf6fd, type: 3}
      propertyPath: m_OnClick.m_PersistentCalls.m_Calls.Array.data[1].m_Target
      value: 
      objectReference: {fileID: 2190944206220938135, guid: b10fc5e0ada392d4d8b39210d02f7ef3, type: 3}
    - target: {fileID: 114135021511559430, guid: 69a688479fbdc954491fe244abdaf6fd, type: 3}
      propertyPath: m_OnClick.m_PersistentCalls.m_Calls.Array.data[2].m_Target
      value: 
      objectReference: {fileID: 0}
    - target: {fileID: 114135021511559430, guid: 69a688479fbdc954491fe244abdaf6fd, type: 3}
      propertyPath: m_OnClick.m_PersistentCalls.m_Calls.Array.data[3].m_Target
      value: 
      objectReference: {fileID: 0}
    - target: {fileID: 114135021511559430, guid: 69a688479fbdc954491fe244abdaf6fd, type: 3}
      propertyPath: m_OnClick.m_PersistentCalls.m_Calls.Array.data[0].m_CallState
      value: 2
      objectReference: {fileID: 0}
    - target: {fileID: 114135021511559430, guid: 69a688479fbdc954491fe244abdaf6fd, type: 3}
      propertyPath: m_OnClick.m_PersistentCalls.m_Calls.Array.data[1].m_CallState
      value: 2
      objectReference: {fileID: 0}
    - target: {fileID: 114135021511559430, guid: 69a688479fbdc954491fe244abdaf6fd, type: 3}
      propertyPath: m_OnClick.m_PersistentCalls.m_Calls.Array.data[2].m_CallState
      value: 2
      objectReference: {fileID: 0}
    - target: {fileID: 114135021511559430, guid: 69a688479fbdc954491fe244abdaf6fd, type: 3}
      propertyPath: m_OnClick.m_PersistentCalls.m_Calls.Array.data[3].m_CallState
      value: 2
      objectReference: {fileID: 0}
    - target: {fileID: 114135021511559430, guid: 69a688479fbdc954491fe244abdaf6fd, type: 3}
      propertyPath: m_OnClick.m_PersistentCalls.m_Calls.Array.data[0].m_MethodName
      value: ChangeDepthSub
      objectReference: {fileID: 0}
    - target: {fileID: 114135021511559430, guid: 69a688479fbdc954491fe244abdaf6fd, type: 3}
      propertyPath: m_OnClick.m_PersistentCalls.m_Calls.Array.data[1].m_MethodName
      value: ShowItems
      objectReference: {fileID: 0}
    - target: {fileID: 114135021511559430, guid: 69a688479fbdc954491fe244abdaf6fd, type: 3}
      propertyPath: m_OnClick.m_PersistentCalls.m_Calls.Array.data[2].m_MethodName
      value: DestroyItems
      objectReference: {fileID: 0}
    - target: {fileID: 114135021511559430, guid: 69a688479fbdc954491fe244abdaf6fd, type: 3}
      propertyPath: m_OnClick.m_PersistentCalls.m_Calls.Array.data[3].m_MethodName
      value: BackToOriginPosition
      objectReference: {fileID: 0}
    - target: {fileID: 114135021511559430, guid: 69a688479fbdc954491fe244abdaf6fd, type: 3}
      propertyPath: m_OnClick.m_PersistentCalls.m_Calls.Array.data[0].m_TargetAssemblyTypeName
      value: JY_28_SubTab, Assembly-CSharp
      objectReference: {fileID: 0}
    - target: {fileID: 114135021511559430, guid: 69a688479fbdc954491fe244abdaf6fd, type: 3}
      propertyPath: m_OnClick.m_PersistentCalls.m_Calls.Array.data[1].m_TargetAssemblyTypeName
      value: JY_28_SubTab, Assembly-CSharp
      objectReference: {fileID: 0}
    - target: {fileID: 114135021511559430, guid: 69a688479fbdc954491fe244abdaf6fd, type: 3}
      propertyPath: m_OnClick.m_PersistentCalls.m_Calls.Array.data[2].m_TargetAssemblyTypeName
      value: JY_SubTab, Assembly-CSharp
      objectReference: {fileID: 0}
    - target: {fileID: 114135021511559430, guid: 69a688479fbdc954491fe244abdaf6fd, type: 3}
      propertyPath: m_OnClick.m_PersistentCalls.m_Calls.Array.data[3].m_TargetAssemblyTypeName
      value: JY_MainTab, Assembly-CSharp
      objectReference: {fileID: 0}
    - target: {fileID: 114135021511559430, guid: 69a688479fbdc954491fe244abdaf6fd, type: 3}
      propertyPath: m_OnClick.m_PersistentCalls.m_Calls.Array.data[0].m_Arguments.m_ObjectArgumentAssemblyTypeName
      value: UnityEngine.Object, UnityEngine
      objectReference: {fileID: 0}
    - target: {fileID: 114135021511559430, guid: 69a688479fbdc954491fe244abdaf6fd, type: 3}
      propertyPath: m_OnClick.m_PersistentCalls.m_Calls.Array.data[1].m_Arguments.m_ObjectArgumentAssemblyTypeName
      value: UnityEngine.Object, UnityEngine
      objectReference: {fileID: 0}
    - target: {fileID: 114135021511559430, guid: 69a688479fbdc954491fe244abdaf6fd, type: 3}
      propertyPath: m_OnClick.m_PersistentCalls.m_Calls.Array.data[2].m_Arguments.m_ObjectArgumentAssemblyTypeName
      value: UnityEngine.Object, UnityEngine
      objectReference: {fileID: 0}
    - target: {fileID: 114135021511559430, guid: 69a688479fbdc954491fe244abdaf6fd, type: 3}
      propertyPath: m_OnClick.m_PersistentCalls.m_Calls.Array.data[3].m_Arguments.m_ObjectArgumentAssemblyTypeName
      value: UnityEngine.Object, UnityEngine
      objectReference: {fileID: 0}
    - target: {fileID: 114616423459764524, guid: 69a688479fbdc954491fe244abdaf6fd, type: 3}
      propertyPath: m_Enabled
      value: 0
      objectReference: {fileID: 0}
    - target: {fileID: 114616423459764524, guid: 69a688479fbdc954491fe244abdaf6fd, type: 3}
      propertyPath: m_textAlignment
      value: 65535
      objectReference: {fileID: 0}
    - target: {fileID: 114616423459764524, guid: 69a688479fbdc954491fe244abdaf6fd, type: 3}
      propertyPath: m_TextStyleHashCode
      value: -1183493901
      objectReference: {fileID: 0}
    - target: {fileID: 114616423459764524, guid: 69a688479fbdc954491fe244abdaf6fd, type: 3}
      propertyPath: m_VerticalAlignment
      value: 512
      objectReference: {fileID: 0}
    - target: {fileID: 114616423459764524, guid: 69a688479fbdc954491fe244abdaf6fd, type: 3}
      propertyPath: m_HorizontalAlignment
      value: 2
      objectReference: {fileID: 0}
    - target: {fileID: 224063179150774612, guid: 69a688479fbdc954491fe244abdaf6fd, type: 3}
      propertyPath: m_Pivot.x
      value: 0.5
      objectReference: {fileID: 0}
    - target: {fileID: 224063179150774612, guid: 69a688479fbdc954491fe244abdaf6fd, type: 3}
      propertyPath: m_Pivot.y
      value: 0.5
      objectReference: {fileID: 0}
    - target: {fileID: 224063179150774612, guid: 69a688479fbdc954491fe244abdaf6fd, type: 3}
      propertyPath: m_RootOrder
      value: 0
      objectReference: {fileID: 0}
    - target: {fileID: 224063179150774612, guid: 69a688479fbdc954491fe244abdaf6fd, type: 3}
      propertyPath: m_AnchorMax.x
      value: 0
      objectReference: {fileID: 0}
    - target: {fileID: 224063179150774612, guid: 69a688479fbdc954491fe244abdaf6fd, type: 3}
      propertyPath: m_AnchorMax.y
      value: 0
      objectReference: {fileID: 0}
    - target: {fileID: 224063179150774612, guid: 69a688479fbdc954491fe244abdaf6fd, type: 3}
      propertyPath: m_AnchorMin.x
      value: 0
      objectReference: {fileID: 0}
    - target: {fileID: 224063179150774612, guid: 69a688479fbdc954491fe244abdaf6fd, type: 3}
      propertyPath: m_AnchorMin.y
      value: 0
      objectReference: {fileID: 0}
    - target: {fileID: 224063179150774612, guid: 69a688479fbdc954491fe244abdaf6fd, type: 3}
      propertyPath: m_SizeDelta.x
      value: 90
      objectReference: {fileID: 0}
    - target: {fileID: 224063179150774612, guid: 69a688479fbdc954491fe244abdaf6fd, type: 3}
      propertyPath: m_SizeDelta.y
      value: 60
      objectReference: {fileID: 0}
    - target: {fileID: 224063179150774612, guid: 69a688479fbdc954491fe244abdaf6fd, type: 3}
      propertyPath: m_LocalScale.x
      value: 0.109021194
      objectReference: {fileID: 0}
    - target: {fileID: 224063179150774612, guid: 69a688479fbdc954491fe244abdaf6fd, type: 3}
      propertyPath: m_LocalScale.y
      value: 0.109021194
      objectReference: {fileID: 0}
    - target: {fileID: 224063179150774612, guid: 69a688479fbdc954491fe244abdaf6fd, type: 3}
      propertyPath: m_LocalScale.z
      value: 0.109021194
      objectReference: {fileID: 0}
    - target: {fileID: 224063179150774612, guid: 69a688479fbdc954491fe244abdaf6fd, type: 3}
      propertyPath: m_LocalPosition.x
      value: 0
      objectReference: {fileID: 0}
    - target: {fileID: 224063179150774612, guid: 69a688479fbdc954491fe244abdaf6fd, type: 3}
      propertyPath: m_LocalPosition.y
      value: 0
      objectReference: {fileID: 0}
    - target: {fileID: 224063179150774612, guid: 69a688479fbdc954491fe244abdaf6fd, type: 3}
      propertyPath: m_LocalPosition.z
      value: 0
      objectReference: {fileID: 0}
    - target: {fileID: 224063179150774612, guid: 69a688479fbdc954491fe244abdaf6fd, type: 3}
      propertyPath: m_LocalRotation.w
      value: 1
      objectReference: {fileID: 0}
    - target: {fileID: 224063179150774612, guid: 69a688479fbdc954491fe244abdaf6fd, type: 3}
      propertyPath: m_LocalRotation.x
      value: 0
      objectReference: {fileID: 0}
    - target: {fileID: 224063179150774612, guid: 69a688479fbdc954491fe244abdaf6fd, type: 3}
      propertyPath: m_LocalRotation.y
      value: 0
      objectReference: {fileID: 0}
    - target: {fileID: 224063179150774612, guid: 69a688479fbdc954491fe244abdaf6fd, type: 3}
      propertyPath: m_LocalRotation.z
      value: 0
      objectReference: {fileID: 0}
    - target: {fileID: 224063179150774612, guid: 69a688479fbdc954491fe244abdaf6fd, type: 3}
      propertyPath: m_AnchoredPosition.x
      value: 0
      objectReference: {fileID: 0}
    - target: {fileID: 224063179150774612, guid: 69a688479fbdc954491fe244abdaf6fd, type: 3}
      propertyPath: m_AnchoredPosition.y
      value: 0
      objectReference: {fileID: 0}
    - target: {fileID: 224063179150774612, guid: 69a688479fbdc954491fe244abdaf6fd, type: 3}
      propertyPath: m_LocalEulerAnglesHint.x
      value: 0
      objectReference: {fileID: 0}
    - target: {fileID: 224063179150774612, guid: 69a688479fbdc954491fe244abdaf6fd, type: 3}
      propertyPath: m_LocalEulerAnglesHint.y
      value: 0
      objectReference: {fileID: 0}
    - target: {fileID: 224063179150774612, guid: 69a688479fbdc954491fe244abdaf6fd, type: 3}
      propertyPath: m_LocalEulerAnglesHint.z
      value: 0
      objectReference: {fileID: 0}
    - target: {fileID: 547594041308177382, guid: 69a688479fbdc954491fe244abdaf6fd, type: 3}
      propertyPath: m_Enabled
      value: 1
      objectReference: {fileID: 0}
    - target: {fileID: 6539934887162321517, guid: 69a688479fbdc954491fe244abdaf6fd, type: 3}
      propertyPath: m_text
      value: 
      objectReference: {fileID: 0}
    - target: {fileID: 6539934887162321517, guid: 69a688479fbdc954491fe244abdaf6fd, type: 3}
      propertyPath: m_textAlignment
      value: 65535
      objectReference: {fileID: 0}
    - target: {fileID: 6539934887162321517, guid: 69a688479fbdc954491fe244abdaf6fd, type: 3}
      propertyPath: m_TextStyleHashCode
      value: -1183493901
      objectReference: {fileID: 0}
    - target: {fileID: 6539934887162321517, guid: 69a688479fbdc954491fe244abdaf6fd, type: 3}
      propertyPath: m_VerticalAlignment
      value: 512
      objectReference: {fileID: 0}
    - target: {fileID: 6539934887162321517, guid: 69a688479fbdc954491fe244abdaf6fd, type: 3}
      propertyPath: m_HorizontalAlignment
      value: 2
      objectReference: {fileID: 0}
    - target: {fileID: 7434740385213326439, guid: 69a688479fbdc954491fe244abdaf6fd, type: 3}
      propertyPath: m_IsActive
      value: 0
      objectReference: {fileID: 0}
    m_RemovedComponents:
    - {fileID: 114616423459764524, guid: 69a688479fbdc954491fe244abdaf6fd, type: 3}
    - {fileID: 114057832110388272, guid: 69a688479fbdc954491fe244abdaf6fd, type: 3}
    - {fileID: 6539934887162321517, guid: 69a688479fbdc954491fe244abdaf6fd, type: 3}
  m_SourcePrefab: {fileID: 100100000, guid: 69a688479fbdc954491fe244abdaf6fd, type: 3}
--- !u!1 &6271062313269820545 stripped
GameObject:
  m_CorrespondingSourceObject: {fileID: 1645064954825036, guid: 69a688479fbdc954491fe244abdaf6fd, type: 3}
  m_PrefabInstance: {fileID: 6269734019333273037}
  m_PrefabAsset: {fileID: 0}
--- !u!1 &6271140699085950803 stripped
GameObject:
  m_CorrespondingSourceObject: {fileID: 1408346268236446, guid: 69a688479fbdc954491fe244abdaf6fd, type: 3}
  m_PrefabInstance: {fileID: 6269734019333273037}
  m_PrefabAsset: {fileID: 0}
--- !u!1 &887668130796944352 stripped
GameObject:
  m_CorrespondingSourceObject: {fileID: 6580656985008279085, guid: 69a688479fbdc954491fe244abdaf6fd, type: 3}
  m_PrefabInstance: {fileID: 6269734019333273037}
  m_PrefabAsset: {fileID: 0}
