%YAML 1.1
%TAG !u! tag:unity3d.com,2011:
--- !u!1 &8092473706190187856
GameObject:
  m_ObjectHideFlags: 0
  m_CorrespondingSourceObject: {fileID: 0}
  m_PrefabInstance: {fileID: 0}
  m_PrefabAsset: {fileID: 0}
  serializedVersion: 6
  m_Component:
  - component: {fileID: 8092473706190187857}
  - component: {fileID: 4880252914657031994}
  - component: {fileID: 7332333863326460353}
  - component: {fileID: -5306576405592039300}
  m_Layer: 0
  m_Name: ToolsR
  m_TagString: Untagged
  m_Icon: {fileID: 0}
  m_NavMeshLayer: 0
  m_StaticEditorFlags: 0
  m_IsActive: 1
--- !u!4 &8092473706190187857
Transform:
  m_ObjectHideFlags: 0
  m_CorrespondingSourceObject: {fileID: 0}
  m_PrefabInstance: {fileID: 0}
  m_PrefabAsset: {fileID: 0}
  m_GameObject: {fileID: 8092473706190187856}
  m_LocalRotation: {x: 0, y: 0, z: 0, w: 1}
  m_LocalPosition: {x: 0, y: 0, z: 0}
  m_LocalScale: {x: 1, y: 1, z: 1}
  m_Children:
  - {fileID: 292908399868487621}
  - {fileID: 8744417115090034493}
  m_Father: {fileID: 0}
  m_RootOrder: 0
  m_LocalEulerAnglesHint: {x: 0, y: 0, z: 0}
--- !u!114 &4880252914657031994
MonoBehaviour:
  m_ObjectHideFlags: 0
  m_CorrespondingSourceObject: {fileID: 0}
  m_PrefabInstance: {fileID: 0}
  m_PrefabAsset: {fileID: 0}
  m_GameObject: {fileID: 8092473706190187856}
  m_Enabled: 1
  m_EditorHideFlags: 0
  m_Script: {fileID: 11500000, guid: aa584fbee541324448dd18d8409c7a41, type: 3}
  m_Name: 
  m_EditorClassIdentifier: 
  ObservedComponentsFoldoutOpen: 1
  Group: 0
  prefixField: -1
  observableSearch: 0
  Synchronization: 0
  OwnershipTransfer: 0
  ObservedComponents:
  - {fileID: 0}
  viewIdField: 0
  InstantiationId: 0
  isRuntimeInstantiated: 0
--- !u!114 &7332333863326460353
MonoBehaviour:
  m_ObjectHideFlags: 0
  m_CorrespondingSourceObject: {fileID: 0}
  m_PrefabInstance: {fileID: 0}
  m_PrefabAsset: {fileID: 0}
  m_GameObject: {fileID: 8092473706190187856}
  m_Enabled: 1
  m_EditorHideFlags: 0
  m_Script: {fileID: 11500000, guid: b466e73be1dfcd343a9ea928152eb18b, type: 3}
  m_Name: 
  m_EditorClassIdentifier: 
--- !u!114 &-5306576405592039300
MonoBehaviour:
  m_ObjectHideFlags: 0
  m_CorrespondingSourceObject: {fileID: 0}
  m_PrefabInstance: {fileID: 0}
  m_PrefabAsset: {fileID: 0}
  m_GameObject: {fileID: 8092473706190187856}
  m_Enabled: 1
  m_EditorHideFlags: 0
  m_Script: {fileID: 11500000, guid: 7da5ddd407b141b43873e5007f497dc3, type: 3}
  m_Name: 
  m_EditorClassIdentifier: 
  obj: {fileID: 0}
  data: {fileID: 0}
  isSubTabsSet: 0
--- !u!1001 &8092473706264785665
PrefabInstance:
  m_ObjectHideFlags: 0
  serializedVersion: 2
  m_Modification:
    m_TransformParent: {fileID: 8092473706190187857}
    m_Modifications:
    - target: {fileID: 8385319148354950339, guid: fbf7f0a128c301f47991f84d7c08d93d, type: 3}
      propertyPath: viewIdField
      value: 0
      objectReference: {fileID: 0}
    - target: {fileID: 8385319148354950340, guid: fbf7f0a128c301f47991f84d7c08d93d, type: 3}
      propertyPath: m_RootOrder
      value: 0
      objectReference: {fileID: 0}
    - target: {fileID: 8385319148354950340, guid: fbf7f0a128c301f47991f84d7c08d93d, type: 3}
      propertyPath: m_LocalPosition.x
      value: 0
      objectReference: {fileID: 0}
    - target: {fileID: 8385319148354950340, guid: fbf7f0a128c301f47991f84d7c08d93d, type: 3}
      propertyPath: m_LocalPosition.y
      value: 0
      objectReference: {fileID: 0}
    - target: {fileID: 8385319148354950340, guid: fbf7f0a128c301f47991f84d7c08d93d, type: 3}
      propertyPath: m_LocalPosition.z
      value: 0
      objectReference: {fileID: 0}
    - target: {fileID: 8385319148354950340, guid: fbf7f0a128c301f47991f84d7c08d93d, type: 3}
      propertyPath: m_LocalRotation.w
      value: 1
      objectReference: {fileID: 0}
    - target: {fileID: 8385319148354950340, guid: fbf7f0a128c301f47991f84d7c08d93d, type: 3}
      propertyPath: m_LocalRotation.x
      value: 0
      objectReference: {fileID: 0}
    - target: {fileID: 8385319148354950340, guid: fbf7f0a128c301f47991f84d7c08d93d, type: 3}
      propertyPath: m_LocalRotation.y
      value: 0
      objectReference: {fileID: 0}
    - target: {fileID: 8385319148354950340, guid: fbf7f0a128c301f47991f84d7c08d93d, type: 3}
      propertyPath: m_LocalRotation.z
      value: 0
      objectReference: {fileID: 0}
    - target: {fileID: 8385319148354950340, guid: fbf7f0a128c301f47991f84d7c08d93d, type: 3}
      propertyPath: m_LocalEulerAnglesHint.x
      value: 0
      objectReference: {fileID: 0}
    - target: {fileID: 8385319148354950340, guid: fbf7f0a128c301f47991f84d7c08d93d, type: 3}
      propertyPath: m_LocalEulerAnglesHint.y
      value: 0
      objectReference: {fileID: 0}
    - target: {fileID: 8385319148354950340, guid: fbf7f0a128c301f47991f84d7c08d93d, type: 3}
      propertyPath: m_LocalEulerAnglesHint.z
      value: 0
      objectReference: {fileID: 0}
    - target: {fileID: 8385319148354950344, guid: fbf7f0a128c301f47991f84d7c08d93d, type: 3}
      propertyPath: m_Name
      value: PunHandR
      objectReference: {fileID: 0}
    m_RemovedComponents: []
  m_SourcePrefab: {fileID: 100100000, guid: fbf7f0a128c301f47991f84d7c08d93d, type: 3}
--- !u!4 &292908399868487621 stripped
Transform:
  m_CorrespondingSourceObject: {fileID: 8385319148354950340, guid: fbf7f0a128c301f47991f84d7c08d93d, type: 3}
  m_PrefabInstance: {fileID: 8092473706264785665}
  m_PrefabAsset: {fileID: 0}
--- !u!1001 &8092473706400294252
PrefabInstance:
  m_ObjectHideFlags: 0
  serializedVersion: 2
  m_Modification:
    m_TransformParent: {fileID: 8092473706190187857}
    m_Modifications:
    - target: {fileID: -838954885530648743, guid: b96f6fbdf21c30040a03f92e02e0926b, type: 3}
      propertyPath: viewIdField
      value: 0
      objectReference: {fileID: 0}
    - target: {fileID: 654241289749150289, guid: b96f6fbdf21c30040a03f92e02e0926b, type: 3}
      propertyPath: m_RootOrder
      value: 1
      objectReference: {fileID: 0}
    - target: {fileID: 654241289749150289, guid: b96f6fbdf21c30040a03f92e02e0926b, type: 3}
      propertyPath: m_LocalPosition.x
      value: 0.0387
      objectReference: {fileID: 0}
    - target: {fileID: 654241289749150289, guid: b96f6fbdf21c30040a03f92e02e0926b, type: 3}
      propertyPath: m_LocalPosition.y
      value: -0.0292
      objectReference: {fileID: 0}
    - target: {fileID: 654241289749150289, guid: b96f6fbdf21c30040a03f92e02e0926b, type: 3}
      propertyPath: m_LocalPosition.z
      value: -0.0089
      objectReference: {fileID: 0}
    - target: {fileID: 654241289749150289, guid: b96f6fbdf21c30040a03f92e02e0926b, type: 3}
      propertyPath: m_LocalRotation.w
      value: 0.99780786
      objectReference: {fileID: 0}
    - target: {fileID: 654241289749150289, guid: b96f6fbdf21c30040a03f92e02e0926b, type: 3}
      propertyPath: m_LocalRotation.x
      value: 0.06617793
      objectReference: {fileID: 0}
    - target: {fileID: 654241289749150289, guid: b96f6fbdf21c30040a03f92e02e0926b, type: 3}
      propertyPath: m_LocalRotation.y
      value: -0
      objectReference: {fileID: 0}
    - target: {fileID: 654241289749150289, guid: b96f6fbdf21c30040a03f92e02e0926b, type: 3}
      propertyPath: m_LocalRotation.z
      value: -0
      objectReference: {fileID: 0}
    - target: {fileID: 654241289749150289, guid: b96f6fbdf21c30040a03f92e02e0926b, type: 3}
      propertyPath: m_LocalEulerAnglesHint.x
      value: 7.589
      objectReference: {fileID: 0}
    - target: {fileID: 654241289749150289, guid: b96f6fbdf21c30040a03f92e02e0926b, type: 3}
      propertyPath: m_LocalEulerAnglesHint.y
      value: 0
      objectReference: {fileID: 0}
    - target: {fileID: 654241289749150289, guid: b96f6fbdf21c30040a03f92e02e0926b, type: 3}
      propertyPath: m_LocalEulerAnglesHint.z
      value: 0
      objectReference: {fileID: 0}
    - target: {fileID: 4561879397823596610, guid: b96f6fbdf21c30040a03f92e02e0926b, type: 3}
      propertyPath: m_Name
      value: CubeToolR
      objectReference: {fileID: 0}
    m_RemovedComponents: []
  m_SourcePrefab: {fileID: 100100000, guid: b96f6fbdf21c30040a03f92e02e0926b, type: 3}
--- !u!4 &8744417115090034493 stripped
Transform:
  m_CorrespondingSourceObject: {fileID: 654241289749150289, guid: b96f6fbdf21c30040a03f92e02e0926b, type: 3}
  m_PrefabInstance: {fileID: 8092473706400294252}
  m_PrefabAsset: {fileID: 0}
