%YAML 1.1
%TAG !u! tag:unity3d.com,2011:
--- !u!1 &2777303377266846524
GameObject:
  m_ObjectHideFlags: 0
  m_CorrespondingSourceObject: {fileID: 0}
  m_PrefabInstance: {fileID: 0}
  m_PrefabAsset: {fileID: 0}
  serializedVersion: 6
  m_Component:
  - component: {fileID: 2777303377266846525}
  - component: {fileID: 5392462562615112363}
  - component: {fileID: -8297107718573738931}
  - component: {fileID: -3253342131298523080}
  m_Layer: 0
  m_Name: ToolsL
  m_TagString: Untagged
  m_Icon: {fileID: 0}
  m_NavMeshLayer: 0
  m_StaticEditorFlags: 0
  m_IsActive: 1
--- !u!4 &2777303377266846525
Transform:
  m_ObjectHideFlags: 0
  m_CorrespondingSourceObject: {fileID: 0}
  m_PrefabInstance: {fileID: 0}
  m_PrefabAsset: {fileID: 0}
  m_GameObject: {fileID: 2777303377266846524}
  m_LocalRotation: {x: 0, y: 0, z: 0, w: 1}
  m_LocalPosition: {x: 0, y: 0, z: 0}
  m_LocalScale: {x: 1, y: 1, z: 1}
  m_Children:
  - {fileID: 1538889431066158915}
  - {fileID: 5685388155873226322}
  m_Father: {fileID: 0}
  m_RootOrder: 0
  m_LocalEulerAnglesHint: {x: 0, y: 0, z: 0}
--- !u!114 &5392462562615112363
MonoBehaviour:
  m_ObjectHideFlags: 0
  m_CorrespondingSourceObject: {fileID: 0}
  m_PrefabInstance: {fileID: 0}
  m_PrefabAsset: {fileID: 0}
  m_GameObject: {fileID: 2777303377266846524}
  m_Enabled: 1
  m_EditorHideFlags: 0
  m_Script: {fileID: 11500000, guid: aa584fbee541324448dd18d8409c7a41, type: 3}
  m_Name: 
  m_EditorClassIdentifier: 
  ObservedComponentsFoldoutOpen: 1
  Group: 0
  prefixField: -1
  observableSearch: 0
  Synchronization: 0
  OwnershipTransfer: 0
  ObservedComponents:
  - {fileID: 0}
  viewIdField: 0
  InstantiationId: 0
  isRuntimeInstantiated: 0
--- !u!114 &-8297107718573738931
MonoBehaviour:
  m_ObjectHideFlags: 0
  m_CorrespondingSourceObject: {fileID: 0}
  m_PrefabInstance: {fileID: 0}
  m_PrefabAsset: {fileID: 0}
  m_GameObject: {fileID: 2777303377266846524}
  m_Enabled: 1
  m_EditorHideFlags: 0
  m_Script: {fileID: 11500000, guid: b466e73be1dfcd343a9ea928152eb18b, type: 3}
  m_Name: 
  m_EditorClassIdentifier: 
--- !u!114 &-3253342131298523080
MonoBehaviour:
  m_ObjectHideFlags: 0
  m_CorrespondingSourceObject: {fileID: 0}
  m_PrefabInstance: {fileID: 0}
  m_PrefabAsset: {fileID: 0}
  m_GameObject: {fileID: 2777303377266846524}
  m_Enabled: 1
  m_EditorHideFlags: 0
  m_Script: {fileID: 11500000, guid: 49742358db488a9418f23615bd487357, type: 3}
  m_Name: 
  m_EditorClassIdentifier: 
  invAllData:
    mainCount: 0
    mainList: []
  mainTabBtn: {fileID: 0}
  mainTabLayoout: {fileID: 0}
  subTabBtn: {fileID: 0}
  subTabLayout: {fileID: 0}
  insDis: []
  depth: 
  isMainBtnsSet: 0
  isItemShown: 0
--- !u!1001 &2777303376025577276
PrefabInstance:
  m_ObjectHideFlags: 0
  serializedVersion: 2
  m_Modification:
    m_TransformParent: {fileID: 2777303377266846525}
    m_Modifications:
    - target: {fileID: 4272791389558212645, guid: e7145d83bd42d3c4786faf11209ed180, type: 3}
      propertyPath: viewIdField
      value: 0
      objectReference: {fileID: 0}
    - target: {fileID: 6788931296692337533, guid: e7145d83bd42d3c4786faf11209ed180, type: 3}
      propertyPath: m_Name
      value: CubeToolL
      objectReference: {fileID: 0}
    - target: {fileID: 7524521926815254894, guid: e7145d83bd42d3c4786faf11209ed180, type: 3}
      propertyPath: m_RootOrder
      value: 1
      objectReference: {fileID: 0}
    - target: {fileID: 7524521926815254894, guid: e7145d83bd42d3c4786faf11209ed180, type: 3}
      propertyPath: m_LocalPosition.x
      value: -0.0387
      objectReference: {fileID: 0}
    - target: {fileID: 7524521926815254894, guid: e7145d83bd42d3c4786faf11209ed180, type: 3}
      propertyPath: m_LocalPosition.y
      value: -0.0292
      objectReference: {fileID: 0}
    - target: {fileID: 7524521926815254894, guid: e7145d83bd42d3c4786faf11209ed180, type: 3}
      propertyPath: m_LocalPosition.z
      value: -0.0089
      objectReference: {fileID: 0}
    - target: {fileID: 7524521926815254894, guid: e7145d83bd42d3c4786faf11209ed180, type: 3}
      propertyPath: m_LocalRotation.w
      value: 0.99780786
      objectReference: {fileID: 0}
    - target: {fileID: 7524521926815254894, guid: e7145d83bd42d3c4786faf11209ed180, type: 3}
      propertyPath: m_LocalRotation.x
      value: 0.06617793
      objectReference: {fileID: 0}
    - target: {fileID: 7524521926815254894, guid: e7145d83bd42d3c4786faf11209ed180, type: 3}
      propertyPath: m_LocalRotation.y
      value: -0
      objectReference: {fileID: 0}
    - target: {fileID: 7524521926815254894, guid: e7145d83bd42d3c4786faf11209ed180, type: 3}
      propertyPath: m_LocalRotation.z
      value: -0
      objectReference: {fileID: 0}
    - target: {fileID: 7524521926815254894, guid: e7145d83bd42d3c4786faf11209ed180, type: 3}
      propertyPath: m_LocalEulerAnglesHint.x
      value: 7.589
      objectReference: {fileID: 0}
    - target: {fileID: 7524521926815254894, guid: e7145d83bd42d3c4786faf11209ed180, type: 3}
      propertyPath: m_LocalEulerAnglesHint.y
      value: 0
      objectReference: {fileID: 0}
    - target: {fileID: 7524521926815254894, guid: e7145d83bd42d3c4786faf11209ed180, type: 3}
      propertyPath: m_LocalEulerAnglesHint.z
      value: 0
      objectReference: {fileID: 0}
    m_RemovedComponents: []
  m_SourcePrefab: {fileID: 100100000, guid: e7145d83bd42d3c4786faf11209ed180, type: 3}
--- !u!4 &5685388155873226322 stripped
Transform:
  m_CorrespondingSourceObject: {fileID: 7524521926815254894, guid: e7145d83bd42d3c4786faf11209ed180, type: 3}
  m_PrefabInstance: {fileID: 2777303376025577276}
  m_PrefabAsset: {fileID: 0}
--- !u!1001 &2777303376832813128
PrefabInstance:
  m_ObjectHideFlags: 0
  serializedVersion: 2
  m_Modification:
    m_TransformParent: {fileID: 2777303377266846525}
    m_Modifications:
    - target: {fileID: 3733991500251528971, guid: 7780656bb769fed43831fe9831283d72, type: 3}
      propertyPath: m_RootOrder
      value: 0
      objectReference: {fileID: 0}
    - target: {fileID: 3733991500251528971, guid: 7780656bb769fed43831fe9831283d72, type: 3}
      propertyPath: m_LocalPosition.x
      value: 0
      objectReference: {fileID: 0}
    - target: {fileID: 3733991500251528971, guid: 7780656bb769fed43831fe9831283d72, type: 3}
      propertyPath: m_LocalPosition.y
      value: 0
      objectReference: {fileID: 0}
    - target: {fileID: 3733991500251528971, guid: 7780656bb769fed43831fe9831283d72, type: 3}
      propertyPath: m_LocalPosition.z
      value: 0
      objectReference: {fileID: 0}
    - target: {fileID: 3733991500251528971, guid: 7780656bb769fed43831fe9831283d72, type: 3}
      propertyPath: m_LocalRotation.w
      value: 1
      objectReference: {fileID: 0}
    - target: {fileID: 3733991500251528971, guid: 7780656bb769fed43831fe9831283d72, type: 3}
      propertyPath: m_LocalRotation.x
      value: 0
      objectReference: {fileID: 0}
    - target: {fileID: 3733991500251528971, guid: 7780656bb769fed43831fe9831283d72, type: 3}
      propertyPath: m_LocalRotation.y
      value: 0
      objectReference: {fileID: 0}
    - target: {fileID: 3733991500251528971, guid: 7780656bb769fed43831fe9831283d72, type: 3}
      propertyPath: m_LocalRotation.z
      value: 0
      objectReference: {fileID: 0}
    - target: {fileID: 3733991500251528971, guid: 7780656bb769fed43831fe9831283d72, type: 3}
      propertyPath: m_LocalEulerAnglesHint.x
      value: 0
      objectReference: {fileID: 0}
    - target: {fileID: 3733991500251528971, guid: 7780656bb769fed43831fe9831283d72, type: 3}
      propertyPath: m_LocalEulerAnglesHint.y
      value: 0
      objectReference: {fileID: 0}
    - target: {fileID: 3733991500251528971, guid: 7780656bb769fed43831fe9831283d72, type: 3}
      propertyPath: m_LocalEulerAnglesHint.z
      value: 0
      objectReference: {fileID: 0}
    - target: {fileID: 3733991500251528972, guid: 7780656bb769fed43831fe9831283d72, type: 3}
      propertyPath: viewIdField
      value: 0
      objectReference: {fileID: 0}
    - target: {fileID: 3733991500251528974, guid: 7780656bb769fed43831fe9831283d72, type: 3}
      propertyPath: m_Name
      value: PunHandL
      objectReference: {fileID: 0}
    m_RemovedComponents: []
  m_SourcePrefab: {fileID: 100100000, guid: 7780656bb769fed43831fe9831283d72, type: 3}
--- !u!4 &1538889431066158915 stripped
Transform:
  m_CorrespondingSourceObject: {fileID: 3733991500251528971, guid: 7780656bb769fed43831fe9831283d72, type: 3}
  m_PrefabInstance: {fileID: 2777303376832813128}
  m_PrefabAsset: {fileID: 0}
