%YAML 1.1
%TAG !u! tag:unity3d.com,2011:
--- !u!78 &1
TagManager:
  serializedVersion: 2
  tags:
  - DisplayPrefab
  - GamePrefab
  - Bullet
  - ControlDesk
  - VRGazeInteractable
  layers:
  - Default
  - TransparentFX
  - Ignore Raycast
  - 
  - Water
  - UI
  - 
  - 
  - 
  - Player
  - Grabbable
  - ColorDisPlay
  - LocaDisplay
  - Display
  - Game
  - vrgGrabber
  - 
  - 
  - 
  - 
  - NotOnFilmCam
  - 
  - PostProcessing
  - PathPoint
  - Floor
  - 
  - 
  - 
  - 
  - 
  - RCC
  - Car
  m_SortingLayers:
  - name: Default
    uniqueID: 0
    locked: 0
